<svg xmlns="http://www.w3.org/2000/svg" xmlns:xlink="http://www.w3.org/1999/xlink" viewBox="0 0 272.7 848.9" preserveAspectRatio="xMinYMin meet">
<style type="text/css">
	.st0{fill-rule:evenodd;clip-rule:evenodd;fill:#027333;}
	.st1{fill-rule:evenodd;clip-rule:evenodd;fill:#F3B900;}
	.st2{fill-rule:evenodd;clip-rule:evenodd;fill:#B6D3C6;}
	.st3{fill-rule:evenodd;clip-rule:evenodd;fill:#5C3415;}
	.st4{fill-rule:evenodd;clip-rule:evenodd;fill:#7EC026;}
	.st5{fill-rule:evenodd;clip-rule:evenodd;fill:#83C224;}
	.st6{fill-rule:evenodd;clip-rule:evenodd;fill:#376E2A;}
	.st7{fill-rule:evenodd;clip-rule:evenodd;fill:#76A849;}
	.st8{fill-rule:evenodd;clip-rule:evenodd;fill:#A9C729;}
	.st9{fill-rule:evenodd;clip-rule:evenodd;fill:#99B54A;}
	.st10{fill-rule:evenodd;clip-rule:evenodd;fill:#89B62A;}
	.st11{fill-rule:evenodd;clip-rule:evenodd;fill:#8DCE4E;}
	.st12{fill-rule:evenodd;clip-rule:evenodd;fill:#91D232;}
	.st13{fill-rule:evenodd;clip-rule:evenodd;fill:#8DEA35;}
	.st14{fill-rule:evenodd;clip-rule:evenodd;fill:#80BFCF;}
	.st15{fill-rule:evenodd;clip-rule:evenodd;fill:#A9CFDA;}
	.st16{fill-rule:evenodd;clip-rule:evenodd;fill:#313130;}
	.st17{fill-rule:evenodd;clip-rule:evenodd;fill:#141515;}
	.st18{fill-rule:evenodd;clip-rule:evenodd;fill:#818181;}
	.st19{fill-rule:evenodd;clip-rule:evenodd;fill:#E2E8A8;}
	.st20{fill-rule:evenodd;clip-rule:evenodd;fill:#EAEDD6;}
	.st21{fill-rule:evenodd;clip-rule:evenodd;fill:#EED933;}
	.st22{fill-rule:evenodd;clip-rule:evenodd;fill:#CBB32B;}
	.st23{fill-rule:evenodd;clip-rule:evenodd;fill:#4E4C42;}
	.st24{fill-rule:evenodd;clip-rule:evenodd;fill:#AEAFB0;}
	.st25{fill-rule:evenodd;clip-rule:evenodd;fill:#BBC3BA;}
	.st26{fill-rule:evenodd;clip-rule:evenodd;fill:#E8E8E9;}
	.st27{fill-rule:evenodd;clip-rule:evenodd;fill:#262626;}
	.st28{fill-rule:evenodd;clip-rule:evenodd;fill:#EBEBEB;}
	.st29{fill-rule:evenodd;clip-rule:evenodd;fill:#383838;}
	.st30{fill-rule:evenodd;clip-rule:evenodd;fill:#FEAE46;}
	.st31{fill-rule:evenodd;clip-rule:evenodd;fill:#045728;}
	.st32{fill-rule:evenodd;clip-rule:evenodd;fill:#FCC900;}
	.st33{clip-path:url(#SVGID_2_);fill-rule:evenodd;clip-rule:evenodd;fill:#AB622F;}
	.st34{clip-path:url(#SVGID_2_);fill-rule:evenodd;clip-rule:evenodd;fill:#A44F30;}
	.st35{clip-path:url(#SVGID_2_);fill-rule:evenodd;clip-rule:evenodd;fill:#F17E00;}
	.st36{fill-rule:evenodd;clip-rule:evenodd;fill:#AD4728;}
	.st37{fill-rule:evenodd;clip-rule:evenodd;fill:#8B3F2D;}
	.st38{fill-rule:evenodd;clip-rule:evenodd;fill:#E07336;}
	.st39{fill-rule:evenodd;clip-rule:evenodd;fill:#FECD02;}
	.st40{fill-rule:evenodd;clip-rule:evenodd;fill:#EB9028;}
	.st41{fill-rule:evenodd;clip-rule:evenodd;fill:#FDE704;}
	.st42{fill-rule:evenodd;clip-rule:evenodd;fill:#C9822D;}
	.st43{fill:none;stroke:#C9822D;stroke-width:0.5716;stroke-miterlimit:10;}
	.st44{fill-rule:evenodd;clip-rule:evenodd;fill:#FDEC2F;}
	.st45{fill-rule:evenodd;clip-rule:evenodd;fill:#F17E00;}
	.st46{opacity:0.5;}
	.st47{fill-rule:evenodd;clip-rule:evenodd;fill:#FEFEFE;}
</style>
<g id="_x3C_bank-left-duck_x3E_">
	<path class="st0" d="M157.1 372.1c4.6 0 11.2-0.9 16.2-3.2c3.9-1.9 7.4-5.6 7.4-9.5c5.6 0.5 3.8 12.3 3.1 15 c-2.2 8.1-8.1 16-23.4 18.9c-14.8 2.7-28.5-1.7-32.4-13.1c-7.3-21.3 26.6-34.1 44.4-26.7C184.2 358.5 158.6 368.5 157.1 372.1 L157.1 372.1z"/>
	<path class="st1" d="M164.3 7.2l1.5-0.4c0-2.6-1.6-4.6-2.3-6.8h-0.6C162.8 2.2 163.6 5.1 164.3 7.2L164.3 7.2z"/>
	<polygon class="st1" points="195.1,8.3 194.9,8.7 194.7,9.8 194.5,10.2 194.2,10.6 194,11.5 193.8,11.6 193.6,12.7 193.4,13.2 193.2,14 193,14.8 192.8,15.7 192.5,15.9 192.4,17.2 192.1,17.6 192.1,18.3 194,18.7 194.2,18.3 194.5,17 194.7,16.3 194.9,14.4 195.1,14 195.3,12.5 195.6,11.2 195.7,8.7 195.7,8.3 195.6,8.1 195.3,8.1"/>
	<path class="st2" d="M202.7 50.6l-0.2 0.6l-0.2 0.5v0.9l0.4-0.2c0.1-1.1 0.8-1.7 0.2-2.1L202.7 50.6z"/>
	<polygon class="st2" points="201.9,52.9 201.7,53.4 201.7,54.4 202.3,52.5 202.1,52.5"/>
	<polygon class="st2" points="201.3,54.6 201,55.3 200.9,55.9 200.6,56.1 200.4,56.8 200.2,57.4 200,57.8 200,58.2 200.3,58.2 201.7,54.4 201.5,54.4"/>
	<path class="st3" d="M159.6 13.2c-2.4 7.1 8.1 39.1 8.2 39.2c1.3 2.7 2.8 5.4 6.5 5.4l-0.2-0.6c-0.1-0.9 0.7-0.8 1.7-0.8 c0.5 0 0.6 0.4 1.5 0.6v4.9l0.2 8.5c0.6 0 1.6 1.7 2.7 1.7l0.7-4c0.5-0.1 0.5-0.2 1-0.2h0.2c0.6 0 1.9 0.6 1.9 1.1 c0 0.7-1.5 3.1-1 3.8c3.5 0 4.4-1.1 6.6-3.4c2.5-2.6 14.8-45.7 5.3-50.2c-1-0.5-2-0.6-2.7-0.8c-4.3 0-7.3 3.8-8.7 7.8 c-1.4 3.9-1.8 8.6-2.5 12.7h-0.5c-0.9-8.5-2.9-19.6-6.3-27.4C170.8 3.9 160.7 5.5 159.6 13.2L159.6 13.2z"/>
	<path class="st0" d="M198.1 11.5c10.6 21.1 7 35.5-1.9 55.9c-8.2 11-5.8 25.4-12.4 35.7c5-8.9 11-17.5 16.3-26.3 c6.7-11.1 14.3-25.3 13.2-38.5c-0.9-10.3-5.7-21.5-14.3-27.3l-0.4-0.2h-0.5V11.5z"/>
	<path class="st0" d="M175.3 104.9l-3.8 18l-2.2 28.7c-0.1-2.1-0.2-4.3-0.2-6.6c0-14.3 2.2-25.6 4.6-37.3c1.2-5.9 2.5-11.5 3.8-17.2 c1.2-5.3 3.5-12.3 3.5-17.6l0.7 1l0.4 0.5h0.4l0.2-0.2l0.2-1.1v-0.4c-0.5-0.7 1-3.1 1-3.8c0-0.5-1.3-1.1-1.9-1.1h-0.2 c-0.6 0-0.6 0.1-1 0.2l-0.7 4c-0.9 4.8-1.7 9.6-2.5 14.5l-2.3 10.6c-1.4 5.9-3.3 12.4-4.3 18.7c-0.9 5.5-3 14.2-3 20l-0.2-0.4 l-0.2-3.4c-0.9 1.3 0.3 17.8 0.7 19.9c0.6 3.2 0.7 6.2 1.3 9.3c0.3 1.9 1.5 7.4 1.5 8.8c0 0.2-6.1-23-6.1-34.6L165 128l1-14.4 c-4.1-6.2-5.4-8.5-14.1-11.4c-4.6-1.5-10.4-1.3-14.2 2.1c17.1-2.1 21.4 13.2 23.7 26.2c1.8 10.4 5.3 28.8 5.5 39.5l10.2 0.6 l-1.3-4.1c-0.8-1.3-1.6-8.7-1.6-11.2c0.2-28.4 3.1-41.1 17.9-66.9c3.1-5.5 18.3-36.3 6-18.2c-1.5 2.2-3.3 5.1-4.6 7.4 C191.9 80.2 176 102.5 175.3 104.9L175.3 104.9z"/>
	<path class="st4" d="M166 113.6l-1 14.4l0.1 7.5c0 7 2.2 28.8 5.1 34.5l0 0l1.1 0.1v-0.1c-0.1-1.7-1.3-7-1.6-8.8 c-0.7-3.1-0.7-6.1-1.3-9.3c-0.3-2.1-1.5-18.6-0.7-19.9c0-5.6 0.5-11.3 1.3-16.2c0.7-4.7 1.4-10.6 2.7-14.8c1.8-5.9 3-24.5-2.9-28.8 c2.2 9.4 3.4 16.2 2.3 25.8h-0.2c0-3.3 0.1-6.2 0-9.1c-0.1-6.1-2.2-17.6-7.2-21.3c0.3 1.4 1.5 3.5 2.1 5.1 C170.8 87.1 168 98.9 166 113.6L166 113.6z"/>
	<path class="st5" d="M199.2 60.1c0.4 0.4-11.5 20.9-13.9 23.5l-1.3 2.1l-6.5 12.2c1.1-7.4 5.3-16.9 5.3-23.6l0.2-1.5l-1.9 0.2 c0 2.2-1 6.6-1.5 8.9c-0.5 2.8-1.3 5.7-2 8.7c-1.3 5.8-2.6 11.4-3.8 17.2c-2.5 11.7-4.6 23-4.6 37.3c0 5.8 0.5 11.1 1.1 16.4 c0.2 2.3 0.9 5 1.4 7.3c-2.3-35.5 1.7-60.3 21.9-91.4c1.3-2.3 3.1-5.2 4.6-7.4c1.3-1.8 3.1-6.3 4.2-7.5c2.7-6.2 5.8-12.8 6.6-19.6 c0.2-2 0.5-6.6-0.4-7.9c0 5-3.1 14.1-4.7 17.7c-1.2 2.9-4.5 11.4-6.2 12.7L199.2 60.1z"/>
	<path class="st4" d="M167.9 135.5l0.2 0.4c0-5.8 2.1-14.5 3-20c1-6.2 2.9-12.7 4.3-18.7c0.7-8.5 1.5-17 2.1-25.5v-1.3L177.2 57 c-1-1.1-2.3-1.4-4.1 0.3c2.3 17 3.1 30.4-0.9 47.2c-1.1 4.9-1.8 9.9-2.7 15C168.8 123.8 167.9 130.5 167.9 135.5L167.9 135.5z"/>
	<path class="st6" d="M126.1 158.2l-1.9 32.6l-1.4 10.2l-2.9 5.9l-0.2 6.5c-0.7 3.7-0.8 2.5-0.2 5.3l-2.4 3.3l0.5 4.2l-1.3 5l-7.4-2 l-0.9-1.5l-8.6-7.5l2.7-15.2c-2.2-6-2.7-30.1 0.7-39.6l14.9-34.4l3.7-4.3l-0.9-1.5l9.9-11.9l-7.8 19.1 C122.2 132.7 126.3 153.5 126.1 158.2L126.1 158.2z M118.9 165.5l-2.9-23.8l-4.7 36.7l-2.6 30.7l4.1-36.5 C106.3 204.3 106.4 215.7 118.9 165.5L118.9 165.5z"/>
	<path class="st6" d="M97 136.6c-4.1-6.3 4-13.8 3-21.8L91.4 140l-1.1-6.7l15.8-43.9l1.1 0.4L97 136.6z"/>
	<polygon class="st6" points="120.4,124.9 121.2,126.4 117.5,130.8 114,110.8"/>
	<polygon class="st6" points="66.9,141.1 67.2,165.8 64.6,155.6 63.5,126.6"/>
	<path class="st7" d="M73.6 185.7l0.4 41.4l-1.1-4.9l-3.8 7l-1-15.6l4.5 5.5c0-12.9-2.1-20.7-3.4-33.4c-0.9-9-7.1-22.2-7.4-30.4 l1.9 2.4l1.1-2.2l2.6 10.2l-0.3-24.7v-9.2l2 4.7L73.6 185.7z"/>
	<path class="st8" d="M170.4 170.3l-4.3-4.3l-1.9 1.2c4.1 6.2 9 19.1 12.4 22L170.4 170.3z"/>
	<path class="st9" d="M85.9 227h-3.4c0-20.2-2.2-38.9-2.2-61.4c0-27-14.9-33-17.9-45.7c3.6 2.4 10.8 14.1 13.6 18.7 c4.6 7.4 5.3 14.7 7.1 25.2C85.9 179.2 80.8 216.5 85.9 227L85.9 227z"/>
	<path class="st10" d="M126 117.7c-1.7 7.1-7.6 13.4-10.7 20.5c-3.3 7.5-6.5 15.8-8.2 24.2c-3.5 17.4-2.3 40.7-2.3 61.3l-4.7-16.8 l-1.5 12.3l-2.6-14.5l-0.1 21.1h-1.3L91.4 140l10.3-34.3L97 140.1l2.1 36.7l6.8-30.1L126 117.7z"/>
	<polygon class="st6" points="62.4,192.4 63.5,202.5 63.5,204.7 59.1,193.6 56.8,189.1"/>
	<path class="st6" d="M84.7 159L87 227h-1.1c-5.1-10.6 0-47.8-2.7-63.1c-1.8-10.5-2.5-17.9-7.1-25.2c-2.9-4.6-10-16.3-13.6-18.7 c3 12.7 17.9 18.7 17.9 45.7c0.1 22.4 2.2 41.2 2.2 61.4l-3.5-0.2l-5.4-41.1l-5.3-50.4l-1.5-3.5v9.2l-3.3-14.5L50.8 95.9l1.6-0.6 l11.2 20.1l1.1-38l5.8 49.1C76.7 131 84.5 147.7 84.7 159L84.7 159z"/>
	<path class="st6" d="M136.6 216.1l-3.8 17.7c1.7-2.5 6.1-3.5 9.1-11.4l22-53l1.1-0.4l15.7 37.3c0-10.1-6.1-33.1-11.2-36.8l7.3 19.8 c-3.4-3-7.7-15.9-11.8-22.1l1.1-1.1l-6.7-1.3L136.6 216.1z"/>
	<path class="st6" d="M63.5 157.8l-1.9-2.4c0.3 8.2 6.5 21.4 7.4 30.4c1.3 12.7 3.4 20.5 3.4 33.4l-4.5-5.5v-10 c3.8-5.9-5.1-39.1-7.8-44.6l-7.6-20.2L63.5 157.8z"/>
	<path class="st11" d="M80.3 227l-6.9 1l-3.2 2.4h-5.6V217l-1.1-5.5v-6.7v-2.2l-1.1-10l-2.2-15.6l7.8 26.8v10l1 15.6l3.8-7l1.1 4.9 l-0.4-41.4v-19l1.1-19C78.8 157.2 73.3 216 80.3 227L80.3 227z"/>
	<path class="st12" d="M90.3 133.3l1.1 6.7l3.3 83.7l1.2 2.1l-1-49.6l3.7 42.9l1.7-30.5l4.6 35.1l2 3.3l1.4-30.1l3.3-35.7v-5.6h1 l1.3 30.8l4.9-40.8c1.3 2.6 1.8 5.6 1.8 10v4.5c0 7.3-3.8 28.4-5.1 32.8c-3.4 11.1-2.7 22.5-2.7 36.4l-9-1.1l-11.1-2.2 c-2.2-0.4-3.3 0.6-5.6 1.1L84.7 159l-8.2-68L90.3 133.3z"/>
	<path class="st7" d="M132.7 233.8l5.2 1.5c10-20.1 16.4-46.8 24.6-68.1c-8.4 2.3-20.2 47.9-25.6 55.8L132.7 233.8z"/>
	<path class="st7" d="M121.5 232.5c0-9.6 15.7-58.6 21.3-62.4l-4.5 15.6l4.6-4.4c-12.1 25.5-13.4 23.8-10.2 52.4l-6.7-1.1l-10-2.2 l-1.1-1.1c0-22.1 8.8-74.1 19.6-82L121.5 232.5z"/>
	<polygon class="st13" points="41.9,218.4 41.9,225.1 39.3,217.4"/>
	<polygon class="st6" points="47.2,211.1 46,212.2 43.8,201 45.1,197.5 46,198.8"/>
	<path class="st12" d="M50.4 198c3 4.6 4.7 3.5 6.9 9.9c1.5 4.3 5.5 11 8.4 14.3l-0.7 8.2c-4.5-1.2-3.7-3.4-9-3.4h-3.3 c-3.9 0-4.3 0.8-7.8 1.1v-2.2l9.3-2l-15.1-6.5l0.3-1.3l18 4.1l-3.7-6.6l-7.8-14.5l-0.9-1.3l-1.3 3.5v-1.1l1.1-5.6L50.4 198z"/>
	<path class="st1" d="M155.9 69.4l-1.5-0.4c0-2.6 1.6-4.6 2.3-6.9h0.6C157.4 64.4 156.6 67.3 155.9 69.4L155.9 69.4z"/>
	<polygon class="st1" points="125.1,70.5 125.3,70.9 125.5,71.9 125.7,72.3 126,72.8 126.1,73.7 126.4,73.8 126.6,74.9 126.8,75.3 127,76.2 127.2,77 127.4,77.9 127.6,78.1 127.8,79.4 128.1,79.8 128.1,80.4 126.1,80.8 126,80.4 125.7,79.1 125.5,78.5 125.3,76.6 125.1,76.2 124.9,74.7 124.6,73.4 124.5,70.9 124.5,70.5 124.6,70.2 124.9,70.2"/>
	<path class="st2" d="M117.4 112.8l0.2 0.6l0.2 0.5v0.9l-0.4-0.2c-0.1-1.1-0.8-1.7-0.2-2.1L117.4 112.8z"/>
	<polygon class="st2" points="118.3,115.1 118.5,115.5 118.5,116.6 117.8,114.7 118.1,114.7"/>
	<polygon class="st2" points="118.9,116.8 119.1,117.4 119.3,118.1 119.6,118.3 119.8,118.9 120,119.6 120.2,120 120.2,120.4 119.9,120.4 118.5,116.6 118.7,116.6"/>
	<path class="st3" d="M160.6 75.3c2.4 7.2-8.1 39.1-8.2 39.3c-1.3 2.7-2.8 5.4-6.5 5.4l0.1-0.6c0.2-0.9-0.7-0.8-1.6-0.8 c-0.5 0-0.6 0.4-1.5 0.6v4.9l-0.2 8.5c-0.6 0-1.6 1.7-2.8 1.7l-0.6-4c-0.5-0.1-0.5-0.2-1-0.2h-0.2c-0.6 0-1.9 0.6-1.9 1 c0 0.7 1.5 3.1 1.1 3.8c-3.5 0-4.4-1-6.6-3.4c-2.5-2.7-14.8-45.7-5.3-50.2c1-0.5 2-0.6 2.8-0.8c4.3 0 7.3 3.8 8.7 7.7 c1.4 4 1.8 8.6 2.5 12.7h0.5c0.9-8.5 2.9-19.6 6.3-27.3C149.4 66.1 159.5 67.7 160.6 75.3L160.6 75.3z"/>
	<path class="st0" d="M122.1 73.7c-10.6 21.1-7 35.5 1.9 55.9c8.2 11 5.8 25.4 12.4 35.7c-5.1-8.9-11-17.5-16.3-26.3 c-6.7-11.1-14.3-25.3-13.2-38.6c0.9-10.2 5.7-21.5 14.3-27.2l0.4-0.2h0.5V73.7z"/>
	<path class="st0" d="M144.9 167.1l3.8 18l2.2 28.7c0.1-2.2 0.2-4.3 0.2-6.6c0-14.3-2.2-25.6-4.6-37.3c-1.2-5.9-2.5-11.5-3.8-17.2 c-1.2-5.3-3.5-12.3-3.5-17.6l-0.7 1l-0.4 0.5h-0.4l-0.2-0.2l-0.2-1.1v-0.5c0.5-0.7-1.1-3.1-1.1-3.8c0-0.4 1.3-1 1.9-1h0.2 c0.6 0 0.6 0.1 1 0.2l0.6 4c1 4.8 1.7 9.6 2.6 14.5l2.3 10.6c1.4 5.9 3.3 12.4 4.3 18.7c0.9 5.5 3 14.2 3 20l0.2-0.5l0.2-3.4 c0.9 1.3-0.3 17.8-0.7 19.9c-0.6 3.3-0.7 6.3-1.3 9.4c-0.4 1.9-1.5 7.4-1.5 8.8c0 0.1 6.1-23 6.1-34.7l0.1-7.4l-1-14.4 c4.1-6.2 5.4-8.5 14.1-11.4c4.6-1.5 10.4-1.3 14.2 2.1c-17.1-2.1-21.4 13.2-23.7 26.2c-1.8 10.4-5.3 28.8-5.5 39.5l-10.2 0.6 l1.3-4.1c0.8-1.3 1.6-8.7 1.6-11.2c-0.2-28.4-3.1-41.1-17.9-66.9c-3.1-5.5-18.3-36.3-6-18.2c1.5 2.2 3.3 5.1 4.6 7.4 C128.3 142.3 144.2 164.7 144.9 167.1L144.9 167.1z"/>
	<path class="st4" d="M154.2 175.7l1 14.4l-0.1 7.4c0 7-2.2 28.9-5.1 34.6l0 0l-1.1 0.1l0 0c0.1-1.7 1.3-7 1.6-8.8 c0.6-3.1 0.7-6.1 1.3-9.4c0.3-2.1 1.5-18.6 0.7-19.9c0-5.6-0.5-11.3-1.3-16.2c-0.7-4.7-1.4-10.6-2.7-14.8c-1.8-5.9-3-24.5 2.9-28.8 c-2.2 9.4-3.4 16.2-2.3 25.8h0.1c0-3.3 0-6.3 0.1-9.1c0.1-6.1 2.2-17.6 7.2-21.3c-0.3 1.4-1.5 3.5-2.1 5.1 C149.4 149.3 152.1 161.1 154.2 175.7L154.2 175.7z"/>
	<path class="st5" d="M121 122.3c-0.4 0.3 11.5 20.9 13.9 23.4l1.3 2.2l6.6 12.2c-1.1-7.4-5.3-16.9-5.3-23.6l-0.2-1.5l1.9 0.2 c0 2.2 1 6.6 1.4 8.8c0.6 2.9 1.4 5.8 2.1 8.7c1.3 5.8 2.6 11.4 3.8 17.2c2.5 11.7 4.6 23 4.6 37.3c0 5.8-0.5 11.1-1.1 16.4 c-0.2 2.3-0.9 5-1.4 7.3c2.3-35.6-1.7-60.3-21.9-91.4c-1.3-2.3-3.1-5.2-4.6-7.4c-1.3-1.8-3.1-6.3-4.2-7.5 c-2.7-6.2-5.8-12.8-6.6-19.6c-0.2-2-0.5-6.7 0.4-7.9c0 5 3.1 14.1 4.6 17.7c1.3 2.8 4.5 11.4 6.2 12.7L121 122.3z"/>
	<path class="st4" d="M152.3 197.6l-0.2 0.5c0-5.8-2.1-14.5-3-20c-1-6.2-2.9-12.7-4.3-18.7c-0.7-8.5-1.5-17-2.1-25.5v-1.3l0.2-13.4 c1-1.1 2.3-1.4 4.1 0.3c-2.3 17-3.1 30.4 0.9 47.2c1.1 4.9 1.8 9.9 2.7 15C151.4 186 152.3 192.7 152.3 197.6L152.3 197.6z"/>
	<path class="st14" d="M156.8 290.5c33.3 0 60.5-10.1 60.5-22.6c0-12.4-27.2-22.5-60.5-22.5S96.4 255.6 96.4 268 C96.4 280.4 123.5 290.5 156.8 290.5L156.8 290.5z"/>
	<path class="st15" d="M156.8 285.3c28.7 0 52-8.2 52-18.3s-23.4-18.3-52-18.3c-28.6 0-52 8.2-52 18.3S128.2 285.3 156.8 285.3 L156.8 285.3z"/>
	<path class="st16" d="M204.7 162l-2.6 0.1l1.7 1.3L204.7 162z M201.8 162.1l-10.6 0.6c-0.9 3.8-4.5-18.9-4.5 9.8l12.7 8.2 c-0.3 1.7-0.7 1.8-0.7 3.8c0 2.2 3.2 0.7 6 0.7l2.3 0.7v0.8l-7.5 14.2l-5.9-4.1l0.2 6.5l-8.5 25.6l-6.8 2v1.5l-6.9-1.8l3.4-16.2 l-0.2-0.7c0-2.5 0.3-2.5 1.5-3.8l-0.9 5.3l6.9-14.4l0.9-2.8l-2.3 2.2l6.7-10.6l-7.4-5.2l-0.8-1.5v-9l-0.7-4.5c0-5.5-2.2-8-2.2-13.5 v-0.7c-1.6-9.3 27.5-7.8 28.5 6.7l3.8 14.3l-6-4.5l0.7-1.5c2.7-0.7 2-0.1 1.9-3.1l-0.5 1.6h-1.5v-2.2h-1.5L201.8 162.1z"/>
	<path class="st17" d="M198.7 168l-0.7 1.5h-1.5V168l-1.6 0.1l0.9 1.4h-1.5v-3.7c0-2.3 0.9-2.1 2.7-2.1l1.8 2.9V168z"/>
	<path class="st18" d="M198.7 168v-1.5l-1.8-2.9c-1.8 0-2.7-0.2-2.7 2.1v3.7h1.5l3 1.5V168z M195 153c6.4 1.6 8.6 5.1 9.7 9 l-0.9 1.4l-1.1 1.1l-1 2l1.5 3.7l-0.7 1.5l-0.6 6.9l-1.6 2.1h-0.8l-12.7-8.2C186.8 159 175.3 150.3 195 153L195 153z"/>
	<path class="st19" d="M203.3 170.2l-1.5-3.7h1.5v2.2h1.5l0.5-1.6C205.3 170.1 206 169.5 203.3 170.2L203.3 170.2z"/>
	<polygon class="st20" points="195.8,169.5 194.9,168 196.5,168 196.5,169.5 198,169.5 198.7,168 198.7,171"/>
	<path class="st21" d="M204.7 185.2c-2.8 0-6 1.5-6-0.7c0-2 0.4-2.1 0.7-3.8h0.8l1.6-2.1l0.6-6.9l5.8 3.6l1.7 3.1l7.5 3v0.7l-12.8-2 v1.3l55.6 5.3c1.7 2.5 2.4 5.5 0.5 8.5c-18.5-10.2-31.8-8.1-53.7-9.3L204.7 185.2z M269.3 160.5c0.2 2.7 1.5 4 1.5 4.5 c0 8.8-8.3 20.8-17.8 19.4c-3.5-0.5-7.1 0.2-10.8 0.1c-8.1-0.1-16.4-2.2-24.7-2.2v-0.7c4.1 0 7.8-0.4 11.2-0.6 c4.5-0.3 8.6-0.6 12.5-1.9c6.1-2.1 12.3-11.8 10-15.5C255.6 157.1 262.9 150.9 269.3 160.5L269.3 160.5z"/>
	<path class="st22" d="M260.3 186.8l-55.6-5.3v-1.3l12.8 1.9v-0.7l-7.5-3c3.7 0.9 4.7 2.2 9.8 2.2c6.7 0 16.7-1.3 21.7-3.1 c8.3-2.9 6.2-7.3 9.8-14.2c2.3 3.7-2.1 13.2-8.1 15.2c-7.1 2.4-16.4 2.8-25.6 2.8v0.7c22-0.4 54.8 11.5 51.8-21.8 C276.6 173.6 271.4 177.1 260.3 186.8L260.3 186.8z"/>
	<path class="st17" d="M119.3 230.5l0.8 0.7l-2.3 2.3c-2.5 2.6-6.9 3-6.2 6.7l-2.2 0.9l-2.2-7.6l0.8-11.2 C112.1 225.7 114.6 228.2 119.3 230.5L119.3 230.5z"/>
	<path class="st23" d="M200 200.1c4.1 12 3.4 25 2.4 36.7c-1.9 23-11.8 41.1-37.3 41.1c-11.6 0-27.5-2.7-35.5-6.6 c-14.8-7.3-13.2-9.9-20.8-21.9v-0.7l-1.5-7.5l-2.3-7.5v-4.5l-0.7-3.8v-0.7l0.7-3l0.7-2.3l2.3 3l1.7 2.4c-1 6.9-1.4 11.6 0.4 16.1 l1.5-0.6c-1.8-4.3 4.9-7.1 8.1-9.3l-0.2-2.1l1.3-0.6l-1.4-2.1l26.6-1.3l17.9 17.9l-9.4 12.7v0.1l26.8-2.6c2.5-2.3 4.1-5.7 4.1-10.3 c3.7-5.5 6.7-10.9 6.7-20.3c0-3.6-0.9-5.4-1.8-8.3l-4.2 10.6c-1 7.4-7.7 21.3-11.6 4.3v-3.8c1.6-6.8 5.6-12.2 7.9-18.4 c2.5-6.7 8.5-11.7 8.9-12.8L200 200.1z M177.5 255.5c1.1-0.5 2.1-1.1 2.9-1.8C179.5 254.3 178.5 254.9 177.5 255.5L177.5 255.5z"/>
	<path class="st22" d="M259.3 170.2c-1.7-0.1-0.2-5.1-1.9-7.5C263.6 162.8 262.8 167.4 259.3 170.2L259.3 170.2z"/>
	<path class="st18" d="M171.7 229.8l4.5 0.7c9.1 0 11.5-10 14.2-16.8c1 3 1.8 4.9 1.8 8.5c0 9.5-3.1 14.8-6.9 20.5 c0 13.5-12.5 15.9-25.8 15.9l-2.9-0.1l-1.7-2.2l-5.3-3.8l-17.3-6.5l6.7-4.9c-7.3 0.2-6.1-1.2-11.4-4.6l1.5-0.7h-3l13.6-0.1 l-9.9-2.5l5.4-0.5l-1.7-1.3l9.2-0.2l-2.4-1.2l9.9 0.6l0.1-0.8l-6.9-1.1l-0.1-0.5h5.3l-2.4-1.2l10-0.3 C162.4 227.4 166.1 228.5 171.7 229.8L171.7 229.8z"/>
	<path class="st24" d="M156.6 226.7l-12.9 1.5l6.9 1.6l-0.1 0.8l-16.8 0.9l2 1.5l7.9 2.3l-9.2 2.3l-23.6-0.1l4.3-2l-0.5-0.9 l10.1-0.1l-9.9-2.2l7.1-1.4l-2.3-2.3l8.2 1.4l-8.3-4c10.6 3.2 20.5-2.5 29.6-1L156.6 226.7z M134.3 238.8l-24 2.3l17.1 2.2 l-15.8 2.2l24.2 1.2l-22.7 2c8.1 2.5 29.3-0.4 35-1.5l-8.9-1.6l1.5-2.1L153 237l-8.7-0.3L134.3 238.8z"/>
	<path class="st24" d="M167.3 251.3l-15.7 0.9l-2.3-3.7l-30.7 4.5l21.9 1.5l-15 6.1l20-3.9l-16.2 5.8 C141.1 264.1 156.4 255.6 167.3 251.3L167.3 251.3z"/>
	<path class="st17" d="M205.6 166.8l-0.7 1.5h-1.5v-1.5h-1.5l0.8 1.5h-1.5v-3.8c0-2.2 0.9-2.1 2.7-2.1l1.7 2.8V166.8z"/>
	<path class="st1" d="M76.2 189.1l1.5-0.4c0-2.6-1.6-4.6-2.3-6.9h-0.6C74.7 184.1 75.5 187 76.2 189.1L76.2 189.1z"/>
	<polygon class="st1" points="107.1,190.2 106.9,190.6 106.7,191.7 106.4,192.1 106.2,192.5 106,193.4 105.8,193.6 105.6,194.6 105.4,195 105.2,195.9 104.9,196.8 104.7,197.6 104.5,197.8 104.3,199.1 104.1,199.6 104.1,200.2 106,200.6 106.2,200.2 106.4,198.9 106.7,198.2 106.9,196.4 107.1,195.9 107.3,194.4 107.5,193.2 107.7,190.6 107.7,190.2 107.5,190 107.3,190"/>
	<path class="st2" d="M114.7 232.5l-0.2 0.6l-0.2 0.5v0.9l0.4-0.2c0.1-1.1 0.8-1.7 0.2-2.1L114.7 232.5z"/>
	<polygon class="st2" points="113.9,234.8 113.7,235.3 113.7,236.3 114.3,234.4 114.1,234.4"/>
	<polygon class="st2" points="113.2,236.6 113,237.2 112.8,237.8 112.6,238 112.4,238.7 112.2,239.3 112,239.7 112,240.1 112.3,240.1 113.7,236.3 113.4,236.3"/>
	<path class="st3" d="M71.5 195c-2.4 7.2 8.1 39.1 8.2 39.3c1.3 2.7 2.9 5.4 6.5 5.4l-0.1-0.6c-0.2-0.9 0.7-0.8 1.6-0.8 c0.5 0 0.6 0.4 1.5 0.6v4.9l0.2 8.5c0.6 0 1.6 1.7 2.8 1.7l0.6-4c0.5-0.1 0.5-0.2 1-0.2h0.2c0.6 0 1.9 0.6 1.9 1 c0 0.7-1.5 3.1-1.1 3.9c3.5 0 4.4-1.1 6.6-3.4c2.5-2.6 14.8-45.7 5.3-50.2c-1-0.5-2-0.6-2.8-0.8c-4.3 0-7.3 3.8-8.7 7.8 c-1.4 3.9-1.8 8.6-2.5 12.6h-0.5c-0.9-8.5-2.9-19.6-6.3-27.3C82.7 185.9 72.6 187.4 71.5 195L71.5 195z"/>
	<path class="st0" d="M110.1 193.4c10.5 21.1 7 35.5-1.9 55.9c-8.2 11-5.8 25.4-12.4 35.7c5.1-8.9 11-17.5 16.3-26.3 c6.7-11.1 14.3-25.3 13.2-38.5c-0.9-10.3-5.7-21.5-14.3-27.3l-0.4-0.2h-0.4V193.4z"/>
	<path class="st0" d="M87.3 286.9l-3.8 18l-2.1 28.7c-0.2-2.1-0.2-4.3-0.2-6.6c0-14.3 2.2-25.6 4.6-37.3c1.3-5.9 2.5-11.5 3.8-17.2 c1.1-5.3 3.5-12.3 3.4-17.6l0.7 1l0.4 0.5h0.5l0.2-0.2l0.2-1.1v-0.4c-0.5-0.7 1.1-3.1 1.1-3.9c0-0.4-1.3-1-1.9-1h-0.2 c-0.6 0-0.6 0.1-1 0.2l-0.6 4c-1 4.8-1.7 9.6-2.6 14.5l-2.3 10.6c-1.4 5.9-3.3 12.4-4.3 18.7c-0.9 5.5-3 14.2-3 20l-0.2-0.5 l-0.2-3.4c-0.9 1.3 0.3 17.8 0.7 19.9c0.6 3.2 0.7 6.2 1.3 9.3c0.4 1.9 1.5 7.4 1.5 8.8c0 0.2-6.1-23-6.1-34.7l-0.1-7.4l1-14.4 c-4.1-6.2-5.4-8.5-14.1-11.4c-4.6-1.5-10.4-1.3-14.2 2.1c17.1-2.1 21.4 13.2 23.6 26.2c1.8 10.4 5.3 28.8 5.5 39.5l10.2 0.6 l-1.3-4.1c-0.8-1.3-1.6-8.7-1.6-11.2c0.2-28.4 3.1-41.1 17.9-66.9c3.1-5.5 18.3-36.3 6-18.2c-1.5 2.2-3.2 5.1-4.6 7.4 C103.9 262.1 87.9 284.5 87.3 286.9L87.3 286.9z"/>
	<path class="st4" d="M77.9 295.5l-1 14.4l0.1 7.4c0 7 2.2 28.9 5.1 34.6l0 0l1.1 0.1l0 0c-0.1-1.7-1.3-7-1.6-8.8 c-0.6-3.1-0.7-6.1-1.3-9.3c-0.3-2.1-1.5-18.6-0.7-19.9c0-5.6 0.5-11.3 1.3-16.2c0.7-4.7 1.4-10.6 2.7-14.8c1.8-5.9 3-24.5-2.9-28.8 c2.2 9.4 3.4 16.2 2.3 25.8h-0.1c0-3.3 0-6.2 0-9.1c-0.1-6.1-2.2-17.6-7.3-21.3c0.3 1.4 1.5 3.5 2.1 5.1 C82.7 269 80 280.8 77.9 295.5L77.9 295.5z"/>
	<path class="st5" d="M111.2 242c0.4 0.3-11.4 20.9-13.9 23.5l-1.3 2.1l-6.6 12.2c1.1-7.4 5.3-16.9 5.3-23.6l0.2-1.5l-1.9 0.2 c0.1 2.2-1 6.6-1.4 8.9c-0.6 2.9-1.4 5.8-2 8.7c-1.3 5.8-2.6 11.4-3.8 17.2c-2.4 11.7-4.6 23-4.6 37.3c0 5.8 0.5 11.1 1.1 16.4 c0.2 2.3 0.9 5 1.4 7.3c-2.3-35.6 1.7-60.3 21.9-91.4c1.4-2.3 3.1-5.2 4.6-7.4c1.3-1.8 3.1-6.3 4.2-7.5c2.7-6.2 5.8-12.8 6.6-19.6 c0.2-2 0.5-6.7-0.4-7.9c0 5-3.1 14.1-4.6 17.7c-1.3 2.9-4.5 11.4-6.2 12.7L111.2 242z"/>
	<path class="st4" d="M79.9 317.3l0.2 0.5c0-5.8 2.1-14.5 3-20c1-6.2 2.9-12.7 4.3-18.7c0.7-8.5 1.5-17 2.1-25.5v-1.3l-0.2-13.4 c-1-1.1-2.3-1.4-4.1 0.3c2.4 17 3.1 30.4-0.9 47.2c-1.1 4.9-1.8 9.9-2.7 15C80.7 305.7 79.9 312.4 79.9 317.3L79.9 317.3z"/>
	<path class="st1" d="M68.9 228.1l-1.5-0.5c0-2.6 1.6-4.5 2.3-6.8h0.6C70.3 223.1 69.6 225.9 68.9 228.1L68.9 228.1z"/>
	<polygon class="st1" points="38,229.1 38.3,229.6 38.5,230.6 38.7,231.1 38.9,231.5 39.1,232.3 39.3,232.6 39.5,233.6 39.7,234 40,234.9 40.1,235.8 40.4,236.6 40.6,236.8 40.8,238.1 41,238.5 41,239.1 39.1,239.6 38.9,239.1 38.7,237.9 38.5,237.2 38.3,235.3 38,234.9 37.8,233.4 37.6,232.2 37.4,229.6 37.4,229.1 37.6,229 37.8,229"/>
	<path class="st2" d="M30.4 271.5l0.2 0.6l0.2 0.4v0.9l-0.5-0.2c0-1-0.7-1.7-0.2-2.1L30.4 271.5z"/>
	<polygon class="st2" points="31.2,273.8 31.5,274.2 31.5,275.3 30.8,273.4 31,273.4"/>
	<polygon class="st2" points="31.9,275.5 32.1,276.2 32.3,276.8 32.5,277 32.7,277.7 32.9,278.3 33.2,278.7 33.2,279.1 32.8,279.1 31.5,275.3 31.6,275.3"/>
	<path class="st3" d="M73.5 234c2.4 7.2-8.1 39.1-8.1 39.3c-1.3 2.7-2.9 5.4-6.5 5.4l0.1-0.6c0.1-0.9-0.7-0.9-1.7-0.9 c-0.5 0-0.6 0.5-1.5 0.6v4.9l-0.2 8.5c-0.6 0-1.5 1.7-2.7 1.7l-0.6-4.1c-0.5-0.1-0.5-0.2-1.1-0.2H51c-0.6 0-1.9 0.6-1.9 1.1 c0 0.7 1.5 3.1 1.1 3.8c-3.6 0-4.5-1.1-6.6-3.4c-2.6-2.7-14.9-45.7-5.3-50.3c1-0.5 2-0.6 2.7-0.8c4.4 0 7.3 3.8 8.7 7.8 c1.4 3.9 1.8 8.6 2.6 12.7h0.4c0.9-8.5 2.9-19.6 6.4-27.3C62.3 224.8 72.5 226.4 73.5 234L73.5 234z"/>
	<path class="st0" d="M35.1 232.3c-10.6 21.1-7 35.5 1.9 56c8.2 11 5.8 25.4 12.4 35.7c-5-9-11-17.5-16.3-26.3 c-6.7-11.1-14.4-25.3-13.2-38.6c0.9-10.2 5.6-21.5 14.3-27.2l0.5-0.2h0.4V232.3z"/>
	<path class="st0" d="M57.8 325.9l3.8 18l2.1 28.7c0.1-2.2 0.2-4.3 0.2-6.6c0-14.3-2.2-25.6-4.6-37.3c-1.3-5.9-2.5-11.5-3.8-17.2 c-1.2-5.3-3.5-12.3-3.5-17.6l-0.7 1l-0.4 0.5h-0.4l-0.2-0.2l-0.2-1v-0.5c0.5-0.7-1.1-3.1-1.1-3.8c0-0.5 1.3-1.1 1.9-1.1h0.2 c0.6 0 0.6 0.1 1.1 0.2l0.6 4.1c1 4.8 1.7 9.6 2.6 14.4l2.3 10.7c1.4 5.9 3.3 12.4 4.3 18.7c0.9 5.5 2.9 14.2 2.9 20l0.2-0.5 l0.2-3.4c0.9 1.4-0.4 17.8-0.7 19.9c-0.6 3.3-0.6 6.2-1.3 9.4c-0.4 1.9-1.5 7.3-1.5 8.8c0 0.1 6-23 6-34.7l0.1-7.4l-0.9-14.5 c4.1-6.2 5.4-8.5 14.1-11.4c4.5-1.5 10.3-1.3 14.2 2c-17.1-2-21.4 13.2-23.6 26.2c-1.8 10.4-5.3 28.8-5.5 39.5l-10.2 0.6l1.3-4.1 c0.8-1.3 1.6-8.7 1.7-11.3c-0.3-28.3-3.1-41.1-18-66.9c-3.1-5.5-18.3-36.3-6-18.2c1.5 2.2 3.3 5.1 4.6 7.4 C41.2 301.1 57.2 323.4 57.8 325.9L57.8 325.9z"/>
	<path class="st4" d="M67.2 334.4l0.9 14.5l-0.1 7.4c0 7-2.2 28.9-5.1 34.5c0 0.1 0 0 0 0.1l-1 0.1l0 0c0.1-1.8 1.2-7 1.6-8.8 c0.6-3.1 0.7-6.1 1.3-9.4c0.3-2.1 1.6-18.6 0.7-19.9c0-5.5-0.5-11.2-1.3-16.2c-0.7-4.7-1.4-10.5-2.6-14.7c-1.8-6-3-24.6 2.9-28.8 c-2.2 9.4-3.4 16.2-2.2 25.7h0.1c0-3.3-0.1-6.2 0-9.1c0.1-6 2.2-17.6 7.3-21.2c-0.3 1.4-1.5 3.5-2.1 5.1 C62.3 308 65.1 319.8 67.2 334.4L67.2 334.4z"/>
	<path class="st5" d="M33.9 281c-0.3 0.4 11.5 20.9 13.9 23.5l1.3 2.1l6.5 12.2c-1.1-7.3-5.3-16.8-5.3-23.6l-0.2-1.5l1.9 0.2 c0 2.2 1 6.6 1.5 8.9c0.6 2.9 1.3 5.7 2 8.7c1.3 5.8 2.6 11.3 3.8 17.2c2.4 11.7 4.6 23 4.6 37.3c0 5.8-0.5 11.1-1.1 16.3 c-0.3 2.4-0.9 5-1.4 7.4c2.3-35.6-1.7-60.3-21.9-91.4c-1.3-2.3-3.1-5.1-4.6-7.4c-1.2-1.8-3.1-6.2-4.2-7.5 c-2.8-6.1-5.8-12.8-6.6-19.6c-0.2-1.9-0.4-6.6 0.5-7.8c0 4.9 3 14.1 4.6 17.6c1.3 2.9 4.5 11.4 6.2 12.7L33.9 281z"/>
	<path class="st4" d="M65.3 356.3l-0.2 0.5c0-5.8-2.1-14.5-2.9-20c-1-6.3-2.9-12.7-4.3-18.7c-0.7-8.6-1.5-17-2.2-25.6v-1.3l0.2-13.4 c1-1.1 2.3-1.3 4.1 0.4c-2.3 17-3.1 30.4 0.9 47.2c1.1 4.9 1.8 9.9 2.7 15C64.3 344.7 65.3 351.4 65.3 356.3L65.3 356.3z"/>
	<polygon class="st6" points="82.8,359.3 83.1,384 80.6,373.8 79.4,344.8"/>
	<path class="st7" d="M89.5 404l0.5 41.4l-1.1-4.9l-3.9 7l-1-15.6l4.5 5.5c0-12.9-2.1-20.7-3.4-33.4c-1-9.1-7.1-22.2-7.5-30.4 l1.9 2.4l1.1-2.2l2.6 10.2l-0.3-24.7v-9.3l1.9 4.7L89.5 404z"/>
	<path class="st9" d="M101.7 445.2h-3.4c0-20.2-2.2-38.9-2.2-61.4c-0.1-27-14.9-33-17.9-45.7c3.6 2.4 10.7 14.1 13.6 18.7 c4.6 7.4 5.3 14.8 7.1 25.3C101.7 397.5 96.7 434.7 101.7 445.2L101.7 445.2z"/>
	<polygon class="st6" points="78.3,410.6 79.4,420.7 79.4,422.9 75,411.8 72.7,407.3"/>
	<path class="st6" d="M100.7 377.2l2.2 68.1h-1.1c-5.1-10.6 0-47.8-2.7-63.1c-1.8-10.5-2.5-17.9-7.1-25.3 c-2.9-4.6-10-16.3-13.6-18.7c3 12.7 17.8 18.7 17.9 45.7c0 22.4 2.2 41.2 2.2 61.4l-3.5-0.2L89.5 404l-5.3-50.4l-1.4-3.5v9.3 l-3.4-14.5l-12.7-30.7l1.6-0.6l11.1 20l1.1-37.9l5.7 49.1C92.7 349.2 100.4 365.9 100.7 377.2L100.7 377.2z"/>
	<path class="st6" d="M79.4 376l-1.9-2.4c0.4 8.2 6.5 21.3 7.5 30.4c1.3 12.7 3.4 20.5 3.4 33.4l-4.5-5.5v-10 c3.8-6-5.1-39.1-7.8-44.6L68.5 357L79.4 376z"/>
	<path class="st11" d="M96.1 445.2l-6.8 1l-3.3 2.4h-5.5v-13.4l-1.1-5.6v-6.7v-2.2l-1.1-10L76.2 395l7.7 26.8v10l1 15.6l3.9-7 l1.1 4.9L89.5 404v-19l1.1-19C94.7 375.4 89.2 434.2 96.1 445.2L96.1 445.2z"/>
	<polygon class="st13" points="57.8,436.6 57.8,443.3 55.2,435.6"/>
	<polygon class="st6" points="63,429.3 61.9,430.4 59.7,419.2 61,415.7 61.9,417"/>
	<path class="st12" d="M66.3 416.2c3.1 4.6 4.7 3.5 6.9 9.9c1.5 4.3 5.5 11 8.4 14.3l-0.7 8.2c-4.5-1.1-3.7-3.3-8.9-3.3h-3.4 c-3.8 0-4.3 0.8-7.8 1.1v-2.2l9.3-2l-15.1-6.5l0.4-1.4l18 4.1l-3.7-6.6l-7.8-14.5l-0.9-1.3l-1.3 3.5v-1.1l1.1-5.6L66.3 416.2z"/>
	<path class="st6" d="M99.3 423.5l-3.9 17.7c1.7-2.5 6.1-3.5 9.1-11.4l22-53l1.1-0.4l15.7 37.3c0-10.1-6.1-33.1-11.2-36.8l7.3 19.9 c-3.4-3-7.7-16-11.8-22.2l1.1-1.1l-6.7-1.3L99.3 423.5z"/>
	<path class="st7" d="M95.5 441.2l5.3 1.5c10-20.1 16.4-46.8 24.6-68.1c-8.5 2.3-20.2 47.9-25.7 55.8L95.5 441.2z"/>
	<path class="st8" d="M132.9 377.1l-4.3-4.3l-1.9 1.3c4.1 6.1 9 19 12.4 22L132.9 377.1z"/>
	<path class="st17" d="M203.7 172c2.1 0 3.8-2.4 3.8-5.4s-1.7-5.4-3.8-5.4c-2.1 0-3.8 2.4-3.8 5.4S201.6 172 203.7 172L203.7 172z"/>
	<path class="st25" d="M204.3 171.6c1.9 0 3.4-2.2 3.4-4.9c0-2.7-1.5-4.9-3.4-4.9c-1.9 0-3.4 2.2-3.4 4.9 C200.9 169.3 202.5 171.6 204.3 171.6L204.3 171.6z"/>
	<path class="st26" d="M204.5 169.7c1.5 0 2.7-1.8 2.7-3.9c0-2.2-1.2-3.9-2.7-3.9c-1.5 0-2.7 1.8-2.7 3.9 C201.8 167.9 203 169.7 204.5 169.7L204.5 169.7z"/>
	<path class="st27" d="M205 163c1.1 0 2.1 1 2.1 2.2c0 0.2 0 0.3-0.1 0.4l-1.5-0.2l0.9 1.5c-0.4 0.3-0.9 0.5-1.4 0.5 c-1.1 0-2.1-1-2.1-2.2S203.8 163 205 163L205 163z"/>
	<rect x="204.1" y="164.7" class="st28" width="0.7" height="0.7"/>
	<path class="st29" d="M206.2 166.6l0.1 0.2c-0.4 0.3-0.9 0.5-1.4 0.5c-1.1 0-2-0.9-2-2.1c0-1 0.6-1.8 1.5-2.1 c-0.3 0.4-0.5 0.9-0.5 1.4c0 1.2 0.9 2.1 2.1 2.1C206 166.6 206.1 166.6 206.2 166.6L206.2 166.6z"/>
	<path class="st17" d="M196.4 172.6c2.1 0 3.8-2.4 3.8-5.4s-1.7-5.4-3.8-5.4c-2.1 0-3.8 2.4-3.8 5.4S194.2 172.6 196.4 172.6 L196.4 172.6z"/>
	<path class="st25" d="M197 172.1c1.9 0 3.4-2.2 3.4-4.9c0-2.7-1.5-4.9-3.4-4.9c-1.9 0-3.4 2.2-3.4 4.9 C193.6 170 195.1 172.1 197 172.1L197 172.1z"/>
	<path class="st26" d="M197.1 170.3c1.5 0 2.7-1.8 2.7-3.9s-1.3-3.9-2.7-3.9c-1.5 0-2.7 1.8-2.7 3.9S195.7 170.3 197.1 170.3 L197.1 170.3z"/>
	<path class="st27" d="M197.6 163.5c1.2 0 2.1 1 2.1 2.2c0 0.2 0 0.3 0 0.4l-1.6-0.2l0.9 1.5c-0.3 0.3-0.9 0.6-1.4 0.6 c-1.1 0-2.1-1-2.1-2.2C195.5 164.5 196.5 163.5 197.6 163.5L197.6 163.5z"/>
	<rect x="196.8" y="165.3" class="st28" width="0.7" height="0.7"/>
	<path class="st29" d="M198.9 167.2l0.1 0.1c-0.3 0.3-0.8 0.5-1.3 0.5c-1.1 0-2.1-0.9-2.1-2.1c0-1 0.7-1.8 1.5-2 c-0.3 0.3-0.5 0.8-0.5 1.4c0 1.1 0.9 2.1 2 2.1C198.7 167.2 198.7 167.2 198.9 167.2L198.9 167.2z"/>
	<path class="st1" d="M149 363l-1.5-0.4c0-2.6 1.6-4.6 2.3-6.9h0.6C150.5 358.1 149.8 360.9 149 363L149 363z"/>
	<polygon class="st1" points="118.2,364.1 118.4,364.5 118.6,365.6 118.8,366 119,366.4 119.3,367.3 119.4,367.5 119.7,368.6 119.9,369 120.1,369.8 120.3,370.7 120.5,371.5 120.8,371.8 120.9,373 121.2,373.5 121.2,374.1 119.3,374.5 119,374.1 118.8,372.8 118.6,372.2 118.4,370.3 118.2,369.8 118,368.3 117.8,367.1 117.6,364.5 117.6,364.1 117.8,363.9 118,363.9"/>
	<path class="st2" d="M110.5 406.4l0.2 0.6l0.2 0.5v0.9l-0.4-0.2c-0.1-1.1-0.8-1.7-0.2-2.1L110.5 406.4z"/>
	<polygon class="st2" points="111.4,408.8 111.6,409.2 111.6,410.2 110.9,408.4 111.2,408.4"/>
	<polygon class="st2" points="112,410.5 112.2,411.1 112.4,411.7 112.6,412 112.9,412.6 113.1,413.2 113.3,413.7 113.3,414.1 113,414 111.6,410.2 111.8,410.2"/>
	<path class="st3" d="M153.7 369c2.4 7.2-8.1 39.1-8.2 39.3c-1.3 2.7-2.8 5.4-6.5 5.4l0.1-0.6c0.1-0.9-0.7-0.8-1.7-0.8 c-0.5 0-0.6 0.4-1.5 0.6v4.9l-0.2 8.5c-0.6 0-1.6 1.7-2.7 1.7l-0.6-4.1c-0.5-0.1-0.5-0.2-1.1-0.2h-0.2c-0.6 0-1.9 0.6-1.9 1 c0 0.7 1.5 3.1 1 3.8c-3.5 0-4.4-1-6.6-3.4c-2.5-2.7-14.8-45.7-5.3-50.2c1-0.5 2-0.6 2.7-0.8c4.3 0 7.3 3.8 8.7 7.7 c1.4 4 1.8 8.6 2.6 12.7h0.4c0.9-8.5 2.9-19.6 6.4-27.3C142.5 359.8 152.6 361.3 153.7 369L153.7 369z"/>
	<path class="st0" d="M115.2 367.3c-10.6 21.1-7 35.5 1.9 55.9c8.2 11 5.8 25.4 12.4 35.7c-5-9-11-17.5-16.3-26.3 c-6.8-11.1-14.4-25.3-13.2-38.6c0.9-10.2 5.7-21.5 14.3-27.2l0.4-0.2h0.5V367.3z"/>
	<path class="st0" d="M137.9 460.8l3.8 18l2.2 28.7c0.1-2.2 0.2-4.3 0.2-6.6c0-14.3-2.2-25.6-4.6-37.3c-1.2-5.9-2.5-11.5-3.8-17.2 c-1.2-5.3-3.5-12.3-3.5-17.6l-0.7 1l-0.4 0.5h-0.4l-0.2-0.2l-0.2-1.1v-0.5c0.5-0.7-1-3.1-1-3.8c0-0.4 1.3-1 1.9-1h0.2 c0.6 0 0.6 0.1 1.1 0.2l0.6 4.1c1 4.8 1.7 9.6 2.5 14.5l2.3 10.6c1.4 5.9 3.3 12.4 4.3 18.7c0.9 5.5 3 14.2 3 20l0.2-0.5l0.2-3.4 c0.8 1.3-0.4 17.8-0.7 19.9c-0.6 3.3-0.6 6.3-1.3 9.4c-0.3 1.9-1.5 7.4-1.5 8.8c0 0.1 6.1-23 6.1-34.7l0.1-7.4l-1-14.4 c4.1-6.2 5.4-8.5 14.2-11.4c4.5-1.5 10.3-1.3 14.2 2.1c-17.1-2.1-21.4 13.2-23.7 26.2c-1.8 10.4-5.3 28.8-5.5 39.5l-10.2 0.6 l1.3-4.1c0.8-1.3 1.6-8.7 1.6-11.2c-0.2-28.4-3.1-41.1-17.9-66.9c-3.1-5.5-18.3-36.3-6-18.2c1.5 2.2 3.3 5.1 4.6 7.4 C121.4 436 137.3 458.4 137.9 460.8L137.9 460.8z"/>
	<path class="st4" d="M147.3 469.4l1 14.4l-0.1 7.4c0 7-2.2 28.9-5.1 34.6l0 0l-1.1 0.1l0 0c0.1-1.7 1.3-7 1.6-8.8 c0.7-3.1 0.7-6.1 1.3-9.4c0.3-2.1 1.5-18.6 0.7-19.9c0-5.6-0.5-11.3-1.3-16.2c-0.7-4.7-1.4-10.6-2.7-14.8c-1.8-5.9-3-24.5 2.9-28.8 c-2.2 9.4-3.4 16.2-2.2 25.8h0.1c0-3.4-0.1-6.3 0-9.1c0.1-6.1 2.2-17.6 7.2-21.3c-0.3 1.4-1.5 3.5-2.1 5.1 C142.5 443 145.3 454.7 147.3 469.4L147.3 469.4z"/>
	<path class="st5" d="M114.1 415.9c-0.3 0.4 11.5 21 13.9 23.5l1.3 2.2l6.5 12.1c-1.1-7.3-5.3-16.8-5.3-23.6l-0.2-1.5l1.9 0.2 c0 2.2 1 6.6 1.5 8.9c0.5 2.9 1.3 5.8 2 8.7c1.3 5.8 2.6 11.4 3.8 17.2c2.5 11.7 4.6 23 4.6 37.3c0 5.8-0.5 11.1-1 16.4 c-0.3 2.3-0.9 5-1.4 7.3c2.3-35.6-1.7-60.3-21.9-91.4c-1.3-2.3-3.1-5.2-4.6-7.4c-1.3-1.8-3.1-6.3-4.2-7.5 c-2.7-6.2-5.8-12.8-6.6-19.6c-0.2-2-0.5-6.7 0.4-7.9c0 5 3.1 14.1 4.7 17.7c1.3 2.8 4.5 11.4 6.2 12.7L114.1 415.9z"/>
	<path class="st4" d="M145.4 491.3l-0.2 0.5c0-5.8-2.1-14.5-3-20c-1-6.2-2.9-12.7-4.3-18.7c-0.7-8.5-1.5-17-2.1-25.5v-1.3l0.2-13.4 c1-1.1 2.3-1.4 4.1 0.3c-2.3 17-3.1 30.4 0.9 47.2c1.1 4.9 1.8 9.9 2.7 15C144.5 479.6 145.4 486.4 145.4 491.3L145.4 491.3z"/>
	<path class="st1" d="M68.8 422.9l1.5-0.5c0-2.5-1.6-4.5-2.3-6.8h-0.6C67.3 417.9 68.1 420.7 68.8 422.9L68.8 422.9z"/>
	<polygon class="st1" points="99.6,423.9 99.4,424.3 99.2,425.4 99,425.8 98.8,426.2 98.5,427.1 98.4,427.3 98.1,428.4 97.9,428.8 97.7,429.7 97.5,430.5 97.3,431.4 97.1,431.6 96.8,432.9 96.7,433.3 96.7,433.9 98.5,434.3 98.8,433.9 99,432.6 99.2,432 99.4,430.1 99.6,429.7 99.9,428.2 100,426.9 100.3,424.3 100.3,423.9 100,423.7 99.9,423.7"/>
	<path class="st2" d="M107.3 466.3l-0.2 0.6l-0.2 0.4v0.9l0.4-0.2c0-1.1 0.8-1.7 0.2-2.2L107.3 466.3z"/>
	<polygon class="st2" points="106.4,468.6 106.2,469 106.2,470.1 106.9,468.1 106.7,468.1"/>
	<polygon class="st2" points="105.8,470.3 105.6,470.9 105.3,471.6 105.2,471.8 104.9,472.4 104.7,473 104.5,473.4 104.5,473.9 104.8,473.8 106.2,470.1 106,470.1"/>
	<path class="st3" d="M64.1 428.8c-2.4 7.2 8.1 39.1 8.1 39.3c1.3 2.7 2.9 5.4 6.5 5.4l-0.1-0.6c-0.1-0.9 0.7-0.9 1.7-0.9 c0.5 0 0.6 0.5 1.5 0.6v4.9L82 486c0.6 0 1.6 1.7 2.7 1.7l0.6-4.1c0.5-0.1 0.5-0.2 1.1-0.2h0.2c0.6 0 1.9 0.6 1.9 1.1 c0 0.7-1.5 3.1-1 3.8c3.5 0 4.4-1.1 6.6-3.4c2.6-2.7 14.9-45.7 5.3-50.3c-1-0.5-2-0.6-2.7-0.8c-4.4 0-7.3 3.8-8.7 7.8 s-1.8 8.6-2.6 12.7H85c-0.9-8.5-2.9-19.6-6.4-27.3C75.3 419.6 65.2 421.1 64.1 428.8L64.1 428.8z"/>
	<path class="st0" d="M102.6 427.1c10.6 21.1 7 35.5-1.9 56c-8.2 11-5.8 25.4-12.4 35.7c5-9 11-17.5 16.3-26.3 c6.7-11.1 14.4-25.3 13.2-38.6c-0.9-10.2-5.6-21.5-14.3-27.2l-0.5-0.2h-0.4V427.1z"/>
	<path class="st0" d="M79.8 520.6l-3.8 18l-2.2 28.7c-0.1-2.2-0.2-4.3-0.2-6.6c0-14.3 2.2-25.6 4.7-37.3c1.2-5.9 2.5-11.5 3.8-17.2 c1.2-5.3 3.5-12.3 3.5-17.6l0.7 1l0.4 0.5h0.4l0.2-0.2l0.2-1v-0.5c-0.5-0.7 1-3.1 1-3.8c0-0.5-1.3-1.1-1.9-1.1h-0.2 c-0.6 0-0.6 0.1-1.1 0.2l-0.6 4.1c-1 4.8-1.7 9.6-2.6 14.4l-2.3 10.7c-1.4 5.9-3.3 12.4-4.2 18.7c-0.9 5.5-3 14.2-3 20l-0.2-0.5 l-0.2-3.4c-0.9 1.3 0.4 17.8 0.7 19.9c0.6 3.3 0.6 6.2 1.3 9.4c0.4 1.9 1.5 7.3 1.5 8.8c0 0.1-6-23-6-34.7l-0.1-7.4l1-14.5 c-4.2-6.2-5.4-8.5-14.2-11.4c-4.5-1.5-10.3-1.3-14.2 2.1c17.1-2.1 21.4 13.1 23.7 26.2c1.8 10.4 5.3 28.8 5.5 39.5l10.2 0.6 l-1.3-4.1c-0.8-1.3-1.6-8.7-1.7-11.3c0.3-28.3 3.1-41 18-66.9c3.1-5.5 18.3-36.3 6-18.2c-1.5 2.2-3.3 5.1-4.6 7.4 C96.4 495.8 80.5 518.2 79.8 520.6L79.8 520.6z"/>
	<path class="st4" d="M70.5 529.2l-1 14.5l0.1 7.4c0 7 2.2 28.9 5.1 34.5c0 0.1 0 0 0 0.1l1 0.1l0 0c-0.1-1.7-1.2-7-1.6-8.8 c-0.6-3.1-0.7-6.1-1.3-9.4c-0.3-2.1-1.6-18.6-0.7-19.9c0-5.6 0.5-11.3 1.3-16.2c0.7-4.7 1.4-10.5 2.6-14.7c1.8-6 3-24.6-2.9-28.8 c2.2 9.4 3.4 16.2 2.2 25.7h-0.1c0-3.3 0.1-6.2 0-9.1c-0.1-6-2.2-17.6-7.2-21.2c0.3 1.4 1.5 3.5 2.1 5.1 C75.3 502.8 72.6 514.6 70.5 529.2L70.5 529.2z"/>
	<path class="st5" d="M103.7 475.7c0.3 0.4-11.5 20.9-13.9 23.5l-1.3 2.1L82 513.5c1.1-7.3 5.3-16.8 5.3-23.6l0.2-1.5l-1.9 0.2 c0 2.2-1 6.6-1.5 8.9c-0.6 2.9-1.3 5.7-2 8.7c-1.3 5.8-2.6 11.3-3.8 17.2c-2.4 11.7-4.6 23-4.6 37.3c0 5.8 0.5 11.1 1.1 16.3 c0.3 2.4 0.9 5 1.4 7.4c-2.3-35.6 1.7-60.3 21.9-91.4c1.3-2.3 3.1-5.1 4.6-7.4c1.3-1.8 3.1-6.2 4.2-7.5c2.7-6.1 5.8-12.8 6.6-19.6 c0.2-1.9 0.4-6.6-0.4-7.8c0 4.9-3.1 14.1-4.7 17.6c-1.3 2.9-4.5 11.4-6.2 12.7L103.7 475.7z"/>
	<path class="st4" d="M72.4 551.1l0.2 0.5c0-5.8 2.1-14.5 3-20c1-6.3 2.9-12.7 4.2-18.7c0.7-8.6 1.5-17 2.2-25.5V486l-0.2-13.4 c-1-1.1-2.3-1.4-4.1 0.3c2.3 17 3.1 30.4-0.9 47.2c-1.1 4.9-1.8 9.9-2.7 15C73.3 539.5 72.4 546.2 72.4 551.1L72.4 551.1z"/>
	<path class="st0" d="M129.3 546.5c3.8 0 9.1 0.6 13.1 2.5c3.2 1.4 6.1 4.2 6.1 7.3c4.6-0.4 3.1-9.4 2.5-11.5 c-1.8-6.2-6.6-12.3-19.1-14.4c-12-2.1-23.1 1.3-26.3 10c-6 16.3 21.6 26 36 20.4C151.4 556.9 130.5 549.2 129.3 546.5L129.3 546.5z "/>
	<polygon class="st30" points="124.5,539.8 102.8,542 85.9,526.1 95.5,528.3 92,517.1 101.1,524.6 107.9,514.8 112.1,527.6 123.4,527.4 118.5,535.4"/>
	<path class="st31" d="M102.5 541.7c-4.3 10.8-5.1 22.6-2.9 34.8h1c-1.5-11.2-1.3-22.6 3.1-34.5L102.5 541.7z"/>
	<polygon class="st32" points="107.8,531.4 108,515.1 101.1,524.6 92.6,517.9 103.5,533.9 88.1,526.9 103,541.5 123.8,539.6 106.3,536 118.5,535.4 123.4,527.4"/>
	<path class="st0" d="M147.6 783.8c3 0 7.3-0.5 10.4-1.9c2.5-1.1 4.8-3.4 4.8-5.8c3.7 0.3 2.5 7.5 2 9.2c-1.4 5-5.3 9.9-15.1 11.6 c-9.6 1.7-18.4-1-21-8.1c-4.7-13.1 17.2-21 28.7-16.4C165.2 775.4 148.6 781.5 147.6 783.8L147.6 783.8z"/>
	<path class="st0" d="M135.8 620.3c3 0 7.3 0.5 10.4 1.9c2.5 1.2 4.8 3.5 4.8 5.9c3.7-0.3 2.5-7.6 2-9.3c-1.4-5-5.2-9.9-15.1-11.6 c-9.6-1.7-18.4 1-21 8.1c-4.7 13.1 17.2 21.1 28.7 16.5C153.4 628.7 136.7 622.5 135.8 620.3L135.8 620.3z"/>
	<polygon class="st30" points="158.8,618.4 144.9,619.8 133.9,609.6 140.1,610.9 137.8,603.7 143.7,608.5 148.1,602.3 150.8,610.5 158.2,610.4 155,615.6"/>
	<path class="st31" d="M144.6 619.6c-2.8 7-3.3 14.6-1.9 22.6h0.7c-1-7.3-0.8-14.6 2.1-22.4L144.6 619.6z"/>
	<polygon class="st32" points="148,612.9 148.2,602.4 143.7,608.5 138.2,604.2 145.3,614.5 135.3,610 145,619.5 158.4,618.2 147.1,616 155,615.6 158.2,610.4"/>
	<polygon class="st30" points="168.9,796.3 154.9,797.8 144,787.5 150.2,788.8 147.9,781.6 153.8,786.5 158.2,780.2 160.9,788.4 168.2,788.3 165.1,793.5"/>
	<path class="st31" d="M154.7 797.5c-2.8 7-3.3 14.7-1.9 22.6h0.7c-1-7.3-0.9-14.6 2-22.4L154.7 797.5z"/>
	<polygon class="st32" points="158.2,790.9 158.3,780.3 153.8,786.5 148.3,782.1 155.3,792.4 145.4,787.9 155,797.4 168.5,796.2 157.1,793.9 165.1,793.5 168.2,788.3"/>
	<path class="st0" d="M141 827.4c3 0 7.3-0.5 10.5-1.9c2.5-1.1 4.8-3.4 4.8-5.8c3.6 0.3 2.5 7.5 2 9.2c-1.4 5-5.3 9.8-15.2 11.5 c-9.6 1.7-18.4-1-21-8c-4.8-13 17.2-20.8 28.7-16.3C158.6 819.2 142 825.2 141 827.4L141 827.4z"/>
	<path class="st6" d="M88.3 583.3l-1.8 28.5l-1.2 9l-2.5 5.1l-0.2 5.7c-0.7 3.2-0.7 2.2-0.2 4.6l-2.1 2.8l0.4 3.7l-1.1 4.3l-6.5-1.7 l-0.8-1.4l-7.5-6.6l2.3-13.3c-1.9-5.2-2.3-26.4 0.6-34.7l13-30.1l3.3-3.8l-0.7-1.4l8.7-10.4L85 560.4 C84.8 561 88.4 579.2 88.3 583.3L88.3 583.3z M81.9 589.8l-2.5-20.9l-4.2 32.2L73 628l3.7-32C70.9 623.7 71 633.7 81.9 589.8 L81.9 589.8z"/>
	<path class="st6" d="M73 567.1c-3.5-5.6 3.5-12.1 2.6-19.1l-7.5 22l-1-5.9l13.8-38.4l1 0.3L73 567.1z"/>
	<polygon class="st6" points="83.2,554.1 83.9,555.5 80.7,559.3 77.6,541.8"/>
	<path class="st8" d="M127 593.9l-3.8-3.7l-1.7 1c3.6 5.4 7.9 16.7 10.8 19.4L127 593.9z"/>
	<path class="st10" d="M98.7 550.6c-1.4 6.2-6.7 11.7-9.4 18c-2.9 6.6-5.7 13.9-7.2 21.2c-3.1 15.2-2 35.6-2 53.7l-4.2-14.7 l-1.3 10.7l-2.3-12.7l-0.1 18.5h-1.1l-2.8-75.2l9-30l-4.1 30.1l1.8 32.1l6-26.4L98.7 550.6z"/>
	<path class="st6" d="M97.4 634L94 649.5c1.5-2.2 5.4-3 8-9.9l19.2-46.4l1-0.4l13.8 32.7c0-8.9-5.3-28.9-9.8-32.3l6.4 17.4 c-3-2.6-6.7-14-10.3-19.4l1-1l-5.9-1.1L97.4 634z"/>
	<path class="st6" d="M67.1 564.1l1 5.9l2.9 73.3l1 1.9l-0.9-43.4l3.3 37.6l1.4-26.8l4.1 30.7l1.7 3l1.2-26.4l2.9-31.3v-4.9h0.9 l1.1 26.9l4.3-35.7c1.1 2.3 1.5 4.9 1.5 8.8v3.9c0 6.4-3.3 24.9-4.5 28.8c-3 9.8-2.3 19.7-2.3 31.9l-7.8-1l-9.8-1.9 c-1.9-0.3-2.9 0.5-4.9 1l-2-59.7L55 527.1L67.1 564.1z"/>
	<path class="st7" d="M94 649.5l4.6 1.4c8.8-17.6 14.4-40.9 21.6-59.7c-7.4 2-17.7 42-22.5 48.9L94 649.5z"/>
	<path class="st7" d="M84.2 648.4c0-8.5 13.8-51.4 18.7-54.7l-3.9 13.7l4.1-3.8c-10.6 22.3-11.8 20.8-8.9 45.8l-5.9-1l-8.8-1.9l-1-1 c0-19.4 7.7-65 17.1-71.9L84.2 648.4z"/>
	<path class="st7" d="M58.4 616.2c2.6 4 4.1 3.1 6 8.6c1.3 3.8 4.8 9.6 7.4 12.6l-0.7 7.1c-3.9-1-3.2-2.9-7.8-2.9h-2.9 c-3.4 0-3.8 0.7-6.9 1v-1.9l8.2-1.8l-13.2-5.7l0.3-1.1l15.8 3.6l-3.2-5.8l-6.9-12.7l-0.8-1.1l-1.1 3.1v-1l1-4.9L58.4 616.2z"/>
	<polygon class="st6" points="55.4,627.7 54.5,628.7 52.5,618.9 53.7,615.8 54.5,617"/>
	<polygon class="st13" points="50.8,634.1 50.8,639.9 48.5,633.2"/>
	<g>
		<defs>
			<polygon id="SVGID_1_" points="13.5,647 176.1,647 166.4,718.7 3.1,718.7"/>
		</defs>
		<clipPath id="SVGID_2_">
			<use xlink:href="#SVGID_1_" style="overflow:visible;"/>
		</clipPath>
		<polygon class="st33" points="12.6,643.3 29.5,643.3 17,723.2 0,723.2"/>
		<path class="st34" d="M17.6 643.3c1.1 10.7 0.1 16.7-2.2 29.4c-1.1 5.9-3 16.2-2.6 21.6c0.2 2.5 0.7 5 0.4 7.1 c1.1 0 4.5-21.9 4.4-24.6c-0.2-4.7 1.9-13 2.7-18.2c0.5-3.5 0.3-7.4 0.7-10.6c0.4-3 2.7-4.7 1.5-4.7H17.6z"/>
		<path class="st35" d="M18.6 643.3c1.1 10.7 0.1 16.7-2.3 29.4c-1.1 6.2-1.9 12.8-2.6 18.9c-0.3 3.2-0.2 7.3-0.7 10.2 c1.1 0 5.5-22.3 5.4-25c-0.2-4.7 2-13 2.7-18.2c0.5-3.5 0.3-7.4 0.7-10.6c0.4-3 2.7-4.7 1.5-4.7H18.6z"/>
		<path class="st34" d="M27 643.3c-1.3 8.2-3 17.9-4.6 26c-2.2 10.6-3.9 20.3-5.1 30.9c-0.3 3.5-1 7.6-1.4 11 c-0.1 1.1-1 6.9-0.9 7.1l-0.5 2.9c0.2 0.1 0.1 0.2 0.1 0.6c0.1 0.1 0.1 0 0 0.4c0.1 0.1 0.2 0.2 0.4 0.2l3.8-25.2 c0.9-5.9 0.9-10.3 1.7-15.4c1-6.4 2.9-10.9 4.1-18.3l3.1-18.5c0.1-0.1 0.3-1.4 0.3-1.9H27z"/>
		<path class="st35" d="M26.7 643.3c-1.3 8.2-3 17.9-4.6 26c-2.2 10.6-3.9 20.3-5.1 30.9c-0.3 3.5-1.1 7.6-1.4 11 c-0.1 1.1-1 6.9-0.9 7.1l-0.5 2.9c0.1 0.1 0.1 0.2 0.1 0.6c0.1 0.1 0.1 0 0 0.4c0.1 0.1 0.2 0.2 0.3 0.2l3.8-25.2 c0.9-5.9 0.9-10.3 1.7-15.4c1-6.4 2.9-10.9 4.1-18.3l3-18.5c0.2-0.1 0.3-1.4 0.4-1.9H26.7z"/>
		<path class="st34" d="M5.1 723.2c2.1-8.8 3.4-17.4 4.6-26.4c0.7-4.4 0.2-8.4 0.7-12.4c0.2-1.7 0.2-4.1 0.1-5.7 c-0.1-0.6-1.1 5.4-1.3 6.9c-0.3 1.8-0.1 2.3 0.1 3.7c0.1 2.3-1.3 6.2-1.4 8.7c-0.3 7.9-2.2 16.3-3.4 24.1l-0.2 1.1H5.1z"/>
		<path class="st35" d="M5.5 723.2c2.2-8.8 3.4-17.4 4.7-26.4c0.6-4.4 0.2-8.4 0.6-12.4c0.2-1.7 0.2-4.1 0.1-5.7 c-0.1-0.6-1.1 5.4-1.4 6.9c-0.2 1.8 0 2.3 0.1 3.7c0.1 2.3-1.3 6.2-1.4 8.7c-0.3 7.9-2.2 16.3-3.4 24.1l-0.2 1.1H5.5z"/>
		<polygon class="st33" points="35.5,723.2 18.6,723.2 31.1,643.3 48,643.3"/>
		<path class="st34" d="M30.4 723.2c-1.1-10.7-0.1-16.7 2.3-29.4c1.1-5.9 3-16.1 2.6-21.6c-0.2-2.5-0.7-5-0.3-7.1 c-1.1 0-4.5 22-4.4 24.6c0.2 4.7-2 13-2.7 18.2c-0.5 3.5-0.3 7.4-0.7 10.6c-0.4 3.1-2.7 4.7-1.5 4.7H30.4z"/>
		<path class="st35" d="M29.4 723.2c-1.1-10.7-0.1-16.7 2.3-29.4c1.1-6.1 1.9-12.8 2.6-18.9c0.3-3.2 0.2-7.3 0.6-10.1 c-1.1 0-5.5 22.3-5.4 24.9c0.2 4.7-2 13-2.7 18.2c-0.5 3.5-0.3 7.4-0.7 10.6c-0.4 3.1-2.7 4.7-1.5 4.7H29.4z"/>
		<path class="st34" d="M21 723.2c1.3-8.2 2.9-17.9 4.6-26c2.1-10.6 3.9-20.3 5-30.9c0.4-3.5 1.1-7.6 1.4-11c0.1-1.1 1-6.9 0.8-7.1 l0.5-2.9c-0.1-0.1-0.1-0.2 0-0.6c-0.1-0.1-0.1 0.1 0-0.4c-0.2-0.1-0.2-0.2-0.4-0.2l-3.8 25.2c-0.9 5.9-0.9 10.3-1.7 15.4 c-1 6.4-2.9 11-4.1 18.3l-3 18.5c-0.1 0.1-0.3 1.4-0.3 1.9H21z"/>
		<path class="st35" d="M21.3 723.2c1.3-8.2 3-17.9 4.6-26c2.2-10.6 3.9-20.3 5-30.9c0.4-3.5 1.1-7.6 1.4-11c0.1-1.1 1-6.9 0.9-7.1 l0.5-2.9c-0.2-0.1-0.1-0.2-0.1-0.6c-0.1-0.1-0.1 0.1 0-0.4c-0.1-0.1-0.2-0.2-0.4-0.2l-3.8 25.2c-0.9 5.9-0.9 10.3-1.7 15.4 c-1 6.4-2.9 11-4.1 18.3l-3.1 18.5c-0.1 0.1-0.3 1.4-0.3 1.9H21.3z"/>
		<path class="st34" d="M42.9 643.3c-2.1 8.8-3.4 17.4-4.7 26.4c-0.6 4.4-0.1 8.5-0.6 12.4c-0.2 1.7-0.2 4.1-0.1 5.7 c0.1 0.6 1.1-5.4 1.3-6.9c0.3-1.8 0-2.3-0.1-3.7c-0.2-2.3 1.3-6.2 1.4-8.7c0.3-7.9 2.2-16.2 3.4-24.1l0.2-1.1H42.9z"/>
		<path class="st35" d="M42.4 643.3c-2.1 8.8-3.4 17.4-4.6 26.4c-0.7 4.4-0.2 8.5-0.7 12.4c-0.2 1.7-0.2 4.1-0.1 5.7 c0.1 0.6 1.1-5.4 1.3-6.9c0.3-1.8 0.1-2.3-0.1-3.7c-0.1-2.3 1.3-6.2 1.4-8.7c0.3-7.9 2.2-16.2 3.4-24.1l0.2-1.1H42.4z"/>
		<polygon class="st33" points="50,643.3 66.9,643.3 54.4,723.2 37.4,723.2"/>
		<path class="st34" d="M55 643.3c1.1 10.7 0.1 16.7-2.3 29.4c-1.1 5.9-3 16.2-2.6 21.6c0.2 2.5 0.7 5 0.4 7.1 c1.1 0 4.5-21.9 4.3-24.6c-0.2-4.7 2-13 2.7-18.2c0.5-3.5 0.3-7.4 0.7-10.6c0.4-3 2.7-4.7 1.5-4.7H55z"/>
		<path class="st35" d="M56 643.3c1.1 10.7 0.1 16.7-2.2 29.4c-1.1 6.2-1.9 12.8-2.6 18.9c-0.3 3.2-0.2 7.3-0.6 10.2 c1.1 0 5.5-22.3 5.4-25c-0.2-4.7 2-13 2.7-18.2c0.5-3.5 0.3-7.4 0.8-10.6c0.3-3 2.7-4.7 1.5-4.7H56z"/>
		<path class="st34" d="M64.5 643.3c-1.3 8.2-3 17.9-4.6 26c-2.2 10.6-3.9 20.3-5.1 30.9c-0.4 3.5-1.1 7.6-1.4 11 c-0.1 1.1-1 6.9-0.9 7.1l-0.5 2.9c0.1 0.1 0.1 0.2 0 0.6c0.1 0.1 0.1 0 0.1 0.4c0.1 0.1 0.2 0.2 0.3 0.2l3.8-25.2 c0.9-5.9 0.9-10.3 1.7-15.4c1-6.4 2.9-10.9 4.1-18.3l3-18.5c0.1-0.1 0.3-1.4 0.3-1.9H64.5z"/>
		<path class="st35" d="M64.2 643.3c-1.3 8.2-3 17.9-4.6 26c-2.2 10.6-4 20.3-5.1 30.9c-0.4 3.5-1.1 7.6-1.4 11 c-0.1 1.1-1 6.9-0.8 7.1l-0.5 2.9c0.1 0.1 0.1 0.2 0 0.6c0.1 0.1 0.1 0 0 0.4c0.2 0.1 0.2 0.2 0.4 0.2l3.8-25.2 c0.9-5.9 0.9-10.3 1.7-15.4c1-6.4 2.9-10.9 4.1-18.3l3-18.5c0.1-0.1 0.3-1.4 0.3-1.9H64.2z"/>
		<path class="st34" d="M42.5 723.2c2.2-8.8 3.4-17.4 4.7-26.4c0.6-4.4 0.2-8.4 0.6-12.4c0.2-1.7 0.2-4.1 0.1-5.7 c-0.1-0.6-1.1 5.4-1.4 6.9c-0.3 1.8 0 2.3 0.1 3.7c0.2 2.3-1.3 6.2-1.4 8.7c-0.2 7.9-2.1 16.3-3.4 24.1l-0.2 1.1H42.5z"/>
		<path class="st35" d="M43 723.2c2.1-8.8 3.4-17.4 4.7-26.4c0.6-4.4 0.1-8.4 0.6-12.4c0.2-1.7 0.2-4.1 0.1-5.7 c-0.1-0.6-1.1 5.4-1.3 6.9c-0.3 1.8 0 2.3 0.1 3.7c0.2 2.3-1.3 6.2-1.4 8.7c-0.3 7.9-2.2 16.3-3.4 24.1l-0.2 1.1H43z"/>
		<polygon class="st33" points="72.9,723.2 56,723.2 68.5,643.3 85.4,643.3"/>
		<path class="st34" d="M67.8 723.2c-1.1-10.7-0.1-16.7 2.2-29.4c1.1-5.9 3-16.1 2.6-21.6c-0.2-2.5-0.7-5-0.4-7.1 c-1.1 0-4.5 22-4.3 24.6c0.2 4.7-2 13-2.7 18.2c-0.5 3.5-0.3 7.4-0.7 10.6c-0.3 3.1-2.7 4.7-1.5 4.7H67.8z"/>
		<path class="st35" d="M66.9 723.2c-1.1-10.7-0.1-16.7 2.2-29.4c1.1-6.1 1.9-12.8 2.6-18.9c0.4-3.2 0.2-7.3 0.7-10.1 c-1.1 0-5.5 22.3-5.4 24.9c0.2 4.7-2 13-2.7 18.2c-0.5 3.5-0.3 7.4-0.7 10.6c-0.4 3.1-2.7 4.7-1.5 4.7H66.9z"/>
		<path class="st34" d="M58.4 723.2c1.3-8.2 3-17.9 4.6-26c2.2-10.6 3.9-20.3 5.1-30.9c0.3-3.5 1.1-7.6 1.4-11 c0.1-1.1 1-6.9 0.9-7.1l0.5-2.9c-0.1-0.1-0.1-0.2-0.1-0.6c-0.1-0.1-0.1 0.1 0-0.4c-0.1-0.1-0.2-0.2-0.3-0.2l-3.8 25.2 c-0.9 5.9-0.9 10.3-1.7 15.4c-1 6.4-2.9 11-4.1 18.3l-3 18.5c-0.2 0.1-0.3 1.4-0.4 1.9H58.4z"/>
		<path class="st35" d="M58.7 723.2c1.3-8.2 3-17.9 4.6-26c2.2-10.6 3.9-20.3 5.1-30.9c0.3-3.5 1.1-7.6 1.4-11 c0.1-1.1 1-6.9 0.9-7.1l0.5-2.9c-0.1-0.1-0.1-0.2-0.1-0.6c-0.1-0.1-0.1 0.1 0-0.4c-0.1-0.1-0.2-0.2-0.3-0.2l-3.8 25.2 c-0.9 5.9-0.9 10.3-1.7 15.4c-1 6.4-2.9 11-4.1 18.3l-3 18.5c-0.2 0.1-0.3 1.4-0.3 1.9H58.7z"/>
		<path class="st34" d="M80.3 643.3c-2.2 8.8-3.4 17.4-4.7 26.4c-0.6 4.4-0.2 8.5-0.6 12.4c-0.2 1.7-0.2 4.1-0.1 5.7 c0.1 0.6 1.1-5.4 1.4-6.9c0.2-1.8 0-2.3-0.1-3.7c-0.1-2.3 1.3-6.2 1.4-8.7c0.3-7.9 2.2-16.2 3.4-24.1l0.2-1.1H80.3z"/>
		<path class="st35" d="M79.9 643.3c-2.2 8.8-3.4 17.4-4.7 26.4c-0.6 4.4-0.2 8.5-0.6 12.4c-0.2 1.7-0.2 4.1-0.1 5.7 c0.1 0.6 1.1-5.4 1.4-6.9c0.3-1.8 0-2.3-0.1-3.7c-0.2-2.3 1.3-6.2 1.4-8.7c0.2-7.9 2.1-16.2 3.4-24.1l0.2-1.1H79.9z"/>
		<polygon class="st33" points="86.8,643.3 103.8,643.3 91.2,723.2 74.3,723.2"/>
		<path class="st34" d="M91.9 643.3C93 654 92 660 89.7 672.7c-1.1 5.9-3 16.2-2.6 21.6c0.2 2.5 0.7 5 0.4 7.1 c1.1 0 4.5-21.9 4.3-24.6c-0.2-4.7 2-13 2.7-18.2c0.5-3.5 0.3-7.4 0.7-10.6c0.3-3 2.7-4.7 1.5-4.7H91.9z"/>
		<path class="st35" d="M92.9 643.3C94 654 93 660 90.7 672.7c-1.1 6.2-1.9 12.8-2.6 18.9c-0.4 3.2-0.2 7.3-0.7 10.2 c1.1 0 5.5-22.3 5.4-25c-0.2-4.7 2-13 2.7-18.2c0.5-3.5 0.3-7.4 0.7-10.6c0.3-3 2.7-4.7 1.5-4.7H92.9z"/>
		<path class="st34" d="M101.3 643.3c-1.3 8.2-3 17.9-4.6 26c-2.2 10.6-3.9 20.3-5.1 30.9c-0.3 3.5-1.1 7.6-1.4 11 c-0.1 1.1-1 6.9-0.9 7.1l-0.5 2.9c0.1 0.1 0.1 0.2 0.1 0.6c0.1 0.1 0.1 0 0 0.4c0.1 0.1 0.2 0.2 0.3 0.2l3.8-25.2 c0.9-5.9 0.9-10.3 1.7-15.4c1-6.4 2.9-10.9 4.1-18.3l3-18.5c0.2-0.1 0.3-1.4 0.4-1.9H101.3z"/>
		<path class="st35" d="M101.1 643.3c-1.3 8.2-3 17.9-4.6 26c-2.2 10.6-3.9 20.3-5.1 30.9c-0.3 3.5-1.1 7.6-1.4 11 c-0.1 1.1-1 6.9-0.9 7.1l-0.5 2.9c0.1 0.1 0.1 0.2 0.1 0.6c0.1 0.1 0.1 0 0 0.4c0.1 0.1 0.2 0.2 0.3 0.2l3.8-25.2 c0.9-5.9 0.9-10.3 1.7-15.4c1-6.4 2.9-10.9 4.1-18.3l3-18.5c0.1-0.1 0.3-1.4 0.3-1.9H101.1z"/>
		<path class="st34" d="M79.4 723.2c2.2-8.8 3.4-17.4 4.7-26.4c0.6-4.4 0.2-8.4 0.6-12.4c0.2-1.7 0.2-4.1 0.1-5.7 c-0.1-0.6-1.1 5.4-1.4 6.9c-0.3 1.8 0 2.3 0.1 3.7c0.1 2.3-1.3 6.2-1.4 8.7c-0.3 7.9-2.2 16.3-3.4 24.1l-0.2 1.1H79.4z"/>
		<path class="st35" d="M79.9 723.2c2.2-8.8 3.4-17.4 4.7-26.4c0.6-4.4 0.2-8.4 0.6-12.4c0.2-1.7 0.2-4.1 0.1-5.7 c-0.1-0.6-1.1 5.4-1.4 6.9c-0.3 1.8 0 2.3 0.1 3.7c0.2 2.3-1.3 6.2-1.4 8.7c-0.2 7.9-2.1 16.3-3.4 24.1l-0.2 1.1H79.9z"/>
		<polygon class="st33" points="109.8,723.2 92.8,723.2 105.4,643.3 122.4,643.3"/>
		<path class="st34" d="M104.7 723.2c-1.1-10.7-0.1-16.7 2.3-29.4c1.1-5.9 3-16.1 2.6-21.6c-0.2-2.5-0.7-5-0.4-7.1 c-1.1 0-4.5 22-4.3 24.6c0.2 4.7-2 13-2.7 18.2c-0.5 3.5-0.3 7.4-0.7 10.6c-0.4 3.1-2.7 4.7-1.5 4.7H104.7z"/>
		<path class="st35" d="M103.7 723.2c-1.1-10.7-0.1-16.7 2.2-29.4c1.1-6.1 1.9-12.8 2.6-18.9c0.3-3.2 0.2-7.3 0.6-10.1 c-1.1 0-5.5 22.3-5.4 24.9c0.2 4.7-2 13-2.7 18.2c-0.5 3.5-0.3 7.4-0.7 10.6c-0.3 3.1-2.7 4.7-1.5 4.7H103.7z"/>
		<path class="st34" d="M95.3 723.2c1.3-8.2 3-17.9 4.6-26c2.2-10.6 3.9-20.3 5.1-30.9c0.3-3.5 1.1-7.6 1.4-11 c0.1-1.1 1-6.9 0.9-7.1l0.5-2.9c-0.1-0.1-0.1-0.2-0.1-0.6c-0.1-0.1-0.1 0.1 0-0.4c-0.1-0.1-0.2-0.2-0.3-0.2l-3.8 25.2 c-0.9 5.9-0.9 10.3-1.7 15.4c-1 6.4-2.9 11-4.1 18.3l-3 18.5c-0.1 0.1-0.3 1.4-0.3 1.9H95.3z"/>
		<path class="st35" d="M95.6 723.2c1.3-8.2 3-17.9 4.6-26c2.2-10.6 4-20.3 5.1-30.9c0.4-3.5 1.1-7.6 1.4-11c0.1-1.1 1-6.9 0.8-7.1 l0.5-2.9c-0.1-0.1-0.1-0.2 0-0.6c-0.1-0.1-0.1 0.1 0-0.4c-0.2-0.1-0.2-0.2-0.4-0.2l-3.8 25.2c-0.9 5.9-0.9 10.3-1.7 15.4 c-1 6.4-2.9 11-4.1 18.3l-3 18.5c-0.1 0.1-0.3 1.4-0.3 1.9H95.6z"/>
		<path class="st34" d="M117.2 643.3c-2.2 8.8-3.4 17.4-4.7 26.4c-0.6 4.4-0.2 8.5-0.6 12.4c-0.2 1.7-0.2 4.1-0.1 5.7 c0.1 0.6 1.1-5.4 1.4-6.9c0.3-1.8 0-2.3-0.1-3.7c-0.2-2.3 1.3-6.2 1.4-8.7c0.2-7.9 2.1-16.2 3.4-24.1l0.2-1.1H117.2z"/>
		<path class="st35" d="M116.8 643.3c-2.1 8.8-3.4 17.4-4.7 26.4c-0.6 4.4-0.2 8.5-0.6 12.4c-0.2 1.7-0.2 4.1-0.1 5.7 c0.1 0.6 1.1-5.4 1.3-6.9c0.3-1.8 0-2.3-0.1-3.7c-0.2-2.3 1.3-6.2 1.4-8.7c0.3-7.9 2.2-16.2 3.4-24.1l0.2-1.1H116.8z"/>
		<polygon class="st33" points="124.3,643.3 141.2,643.3 128.7,723.2 111.7,723.2"/>
		<path class="st34" d="M129.4 643.3c1.1 10.7 0.1 16.7-2.3 29.4c-1.1 5.9-3 16.2-2.6 21.6c0.2 2.5 0.7 5 0.3 7.1 c1.1 0 4.5-21.9 4.4-24.6c-0.2-4.7 2-13 2.7-18.2c0.5-3.5 0.3-7.4 0.7-10.6c0.4-3 2.7-4.7 1.5-4.7H129.4z"/>
		<path class="st35" d="M130.3 643.3c1.1 10.7 0.1 16.7-2.3 29.4c-1.1 6.2-1.9 12.8-2.6 18.9c-0.3 3.2-0.2 7.3-0.7 10.2 c1.1 0 5.5-22.3 5.4-25c-0.2-4.7 2-13 2.7-18.2c0.5-3.5 0.3-7.4 0.7-10.6c0.4-3 2.7-4.7 1.5-4.7H130.3z"/>
		<path class="st34" d="M138.7 643.3c-1.3 8.2-3 17.9-4.6 26c-2.1 10.6-3.9 20.3-5 30.9c-0.4 3.5-1.1 7.6-1.4 11 c-0.1 1.1-1 6.9-0.8 7.1l-0.5 2.9c0.1 0.1 0.1 0.2 0 0.6c0.1 0.1 0.1 0 0 0.4c0.2 0.1 0.2 0.2 0.4 0.2l3.8-25.2 c0.9-5.9 0.9-10.3 1.7-15.4c1-6.4 2.9-10.9 4.1-18.3l3.1-18.5c0.1-0.1 0.3-1.4 0.3-1.9H138.7z"/>
		<path class="st35" d="M138.5 643.3c-1.3 8.2-3 17.9-4.6 26c-2.2 10.6-3.9 20.3-5 30.9c-0.4 3.5-1.1 7.6-1.4 11 c-0.1 1.1-1 6.9-0.9 7.1l-0.5 2.9c0.2 0.1 0.1 0.2 0.1 0.6c0.1 0.1 0.1 0 0 0.4c0.1 0.1 0.2 0.2 0.4 0.2l3.8-25.2 c0.9-5.9 0.9-10.3 1.7-15.4c1-6.4 2.9-10.9 4.1-18.3l3.1-18.5c0.1-0.1 0.3-1.4 0.3-1.9H138.5z"/>
		<path class="st34" d="M116.9 723.2c2.1-8.8 3.4-17.4 4.7-26.4c0.6-4.4 0.1-8.4 0.6-12.4c0.2-1.7 0.2-4.1 0.1-5.7 c-0.1-0.6-1.1 5.4-1.3 6.9c-0.3 1.8 0 2.3 0.1 3.7c0.2 2.3-1.3 6.2-1.4 8.7c-0.3 7.9-2.2 16.3-3.4 24.1l-0.2 1.1H116.9z"/>
		<path class="st35" d="M117.3 723.2c2.2-8.8 3.4-17.4 4.7-26.4c0.7-4.4 0.2-8.4 0.7-12.4c0.2-1.7 0.2-4.1 0.1-5.7 c-0.1-0.6-1.1 5.4-1.3 6.9c-0.3 1.8-0.1 2.3 0.1 3.7c0.1 2.3-1.3 6.2-1.4 8.7c-0.3 7.9-2.2 16.3-3.4 24.1l-0.1 1.1H117.3z"/>
		<polygon class="st33" points="147.2,723.2 130.3,723.2 142.8,643.3 159.8,643.3"/>
		<path class="st34" d="M142.2 723.2c-1.1-10.7-0.1-16.7 2.2-29.4c1.1-5.9 3-16.1 2.6-21.6c-0.2-2.5-0.7-5-0.4-7.1 c-1.1 0-4.5 22-4.4 24.6c0.2 4.7-1.9 13-2.7 18.2c-0.5 3.5-0.3 7.4-0.7 10.6c-0.4 3.1-2.7 4.7-1.5 4.7H142.2z"/>
		<path class="st35" d="M141.1 723.2c-1.1-10.7-0.1-16.7 2.3-29.4c1.1-6.1 1.9-12.8 2.6-18.9c0.3-3.2 0.2-7.3 0.7-10.1 c-1.1 0-5.5 22.3-5.4 24.9c0.2 4.7-2 13-2.7 18.2c-0.5 3.5-0.3 7.4-0.7 10.6c-0.4 3.1-2.7 4.7-1.5 4.7H141.1z"/>
		<path class="st34" d="M132.7 723.2c1.3-8.2 3-17.9 4.6-26c2.2-10.6 3.9-20.3 5-30.9c0.4-3.5 1.1-7.6 1.4-11c0.1-1.1 1-6.9 0.9-7.1 l0.5-2.9c-0.2-0.1-0.1-0.2-0.1-0.6c-0.1-0.1-0.1 0.1 0-0.4c-0.1-0.1-0.2-0.2-0.4-0.2l-3.8 25.2c-0.9 5.9-0.9 10.3-1.7 15.4 c-1 6.4-2.9 11-4.1 18.3l-3.1 18.5c-0.1 0.1-0.3 1.4-0.3 1.9H132.7z"/>
		<path class="st35" d="M133 723.2c1.3-8.2 3-17.9 4.6-26c2.2-10.6 3.9-20.3 5.1-30.9c0.3-3.5 1.1-7.6 1.4-11c0.1-1.1 1-6.9 0.9-7.1 l0.5-2.9c-0.2-0.1-0.1-0.2-0.1-0.6c-0.1-0.1-0.1 0.1 0-0.4c-0.1-0.1-0.2-0.2-0.3-0.2l-3.8 25.2c-0.9 5.9-0.9 10.3-1.7 15.4 c-1 6.4-2.9 11-4.1 18.3l-3 18.5c-0.2 0.1-0.3 1.4-0.4 1.9H133z"/>
		<path class="st34" d="M154.6 643.3c-2.1 8.8-3.4 17.4-4.7 26.4c-0.6 4.4-0.1 8.5-0.6 12.4c-0.2 1.7-0.2 4.1-0.1 5.7 c0.1 0.6 1.1-5.4 1.3-6.9c0.3-1.8 0.1-2.3-0.1-3.7c-0.2-2.3 1.3-6.2 1.4-8.7c0.3-7.9 2.2-16.2 3.4-24.1l0.2-1.1H154.6z"/>
		<path class="st35" d="M154.2 643.3c-2.2 8.8-3.4 17.4-4.7 26.4c-0.6 4.4-0.2 8.5-0.6 12.4c-0.2 1.7-0.2 4.1-0.1 5.7 c0.1 0.6 1.1-5.4 1.4-6.9c0.2-1.8 0-2.3-0.1-3.7c-0.1-2.3 1.3-6.2 1.4-8.7c0.3-7.9 2.2-16.2 3.4-24.1l0.2-1.1H154.2z"/>
		<polygon class="st33" points="165.7,723.2 148.8,723.2 161.4,643.3 178.3,643.3"/>
		<path class="st34" d="M160.7 723.2c-1.1-10.7-0.1-16.7 2.2-29.4c1.1-5.9 3-16.1 2.6-21.6c-0.2-2.5-0.7-5-0.4-7.1 c-1.1 0-4.5 22-4.3 24.6c0.2 4.7-2 13-2.7 18.2c-0.5 3.5-0.3 7.4-0.7 10.6c-0.3 3.1-2.7 4.7-1.5 4.7H160.7z"/>
		<path class="st35" d="M159.7 723.2c-1.1-10.7-0.1-16.7 2.2-29.4c1.1-6.1 1.9-12.8 2.6-18.9c0.4-3.2 0.2-7.3 0.7-10.1 c-1.1 0-5.5 22.3-5.4 24.9c0.2 4.7-2 13-2.7 18.2c-0.5 3.5-0.3 7.4-0.7 10.6c-0.4 3.1-2.7 4.7-1.5 4.7H159.7z"/>
		<path class="st34" d="M151.2 723.2c1.3-8.2 3-17.9 4.6-26c2.2-10.6 3.9-20.3 5.1-30.9c0.3-3.5 1.1-7.6 1.4-11 c0.1-1.1 1-6.9 0.9-7.1l0.5-2.9c-0.1-0.1-0.1-0.2-0.1-0.6c-0.1-0.1-0.1 0.1 0-0.4c-0.1-0.1-0.2-0.2-0.3-0.2l-3.8 25.2 c-0.9 5.9-0.9 10.3-1.7 15.4c-1 6.4-2.9 11-4.1 18.3l-3 18.5c-0.2 0.1-0.3 1.4-0.4 1.9H151.2z"/>
		<path class="st35" d="M151.5 723.2c1.3-8.2 3-17.9 4.6-26c2.2-10.6 3.9-20.3 5.1-30.9c0.3-3.5 1.1-7.6 1.4-11 c0.1-1.1 1-6.9 0.9-7.1l0.5-2.9c-0.1-0.1-0.1-0.2-0.1-0.6c-0.1-0.1-0.1 0.1 0-0.4c-0.1-0.1-0.2-0.2-0.3-0.2l-3.8 25.2 c-0.9 5.9-0.9 10.3-1.7 15.4c-1 6.4-2.9 11-4.1 18.3l-3 18.5c-0.2 0.1-0.3 1.4-0.4 1.9H151.5z"/>
		<path class="st34" d="M173.2 643.3c-2.2 8.8-3.4 17.4-4.7 26.4c-0.6 4.4-0.2 8.5-0.6 12.4c-0.2 1.7-0.2 4.1-0.1 5.7 c0.1 0.6 1.1-5.4 1.4-6.9c0.2-1.8 0-2.3-0.1-3.7c-0.1-2.3 1.3-6.2 1.4-8.7c0.3-7.9 2.2-16.2 3.4-24.1l0.2-1.1H173.2z"/>
		<path class="st35" d="M172.7 643.3c-2.2 8.8-3.4 17.4-4.7 26.4c-0.6 4.4-0.2 8.5-0.6 12.4c-0.2 1.7-0.2 4.1-0.1 5.7 c0.1 0.6 1.1-5.4 1.4-6.9c0.3-1.8 0-2.3-0.1-3.7c-0.2-2.3 1.3-6.2 1.4-8.7c0.2-7.9 2.1-16.2 3.4-24.1l0.2-1.1H172.7z"/>
	</g>
	<path class="st36" d="M131 718.7h23c0 5.8 0 11.7 0 17.6c-8 4.2-15.6 4.5-23 0V718.7z"/>
	<path class="st37" d="M17.4 718.6c-0.4 3.1-3.5 5.6-7.1 5.6c-3.7 0-6.8-2.5-7.2-5.6H17.4z"/>
	<path class="st37" d="M36.1 718.6c-0.5 3.1-4.1 5.6-8.4 5.6c-4.3 0-7.9-2.5-8.4-5.6H36.1z"/>
	<path class="st37" d="M55 718.6c-0.5 3.1-4.1 5.6-8.3 5.6c-4.3 0-7.9-2.5-8.4-5.6H55z"/>
	<path class="st37" d="M73.5 718.6c-0.5 3.1-4.1 5.6-8.4 5.6s-7.9-2.5-8.3-5.6H73.5z"/>
	<path class="st37" d="M91.7 718.6c-0.5 3.1-4.1 5.6-8.4 5.6c-4.3 0-7.9-2.5-8.3-5.6H91.7z"/>
	<path class="st37" d="M110.4 718.6c-0.5 3.1-4.1 5.6-8.4 5.6c-4.3 0-7.9-2.5-8.3-5.6H110.4z"/>
	<path class="st37" d="M129.1 718.6c-0.5 3.1-4.1 5.6-8.4 5.6c-4.3 0-7.9-2.5-8.3-5.6H129.1z"/>
	<path class="st37" d="M147.8 718.6c-0.5 3.1-4.1 5.6-8.4 5.6c-4.3 0-7.9-2.5-8.4-5.6H147.8z"/>
	<path class="st37" d="M166.3 718.6c-0.5 3.1-4.1 5.6-8.4 5.6c-4.3 0-7.9-2.5-8.3-5.6H166.3z"/>
	<polygon class="st38" points="12.4,654.2 175.2,654.2 174.8,655.5 12,655.8"/>
	<polygon class="st38" points="4.1,712.7 166.8,712.7 166.4,714.1 3.6,714.5"/>
	<path class="st1" d="M113 698.6l1-0.3c0-1.7-1-2.9-1.5-4.4h-0.4C112.1 695.4 112.5 697.3 113 698.6L113 698.6z"/>
	<polygon class="st1" points="133,699.3 132.9,699.6 132.7,700.3 132.6,700.6 132.4,700.9 132.3,701.4 132.2,701.5 132,702.2 131.9,702.5 131.7,703 131.6,703.6 131.5,704.2 131.3,704.3 131.2,705.1 131,705.4 131,705.8 132.3,706.1 132.4,705.8 132.6,705 132.7,704.6 132.9,703.3 133,703 133.1,702.1 133.3,701.3 133.4,699.6 133.4,699.3 133.3,699.2 133.1,699.2"/>
	<path class="st2" d="M137.9 726.7l-0.2 0.4l-0.1 0.3v0.6l0.3-0.2c0-0.7 0.5-1 0.1-1.4L137.9 726.7z"/>
	<polygon class="st2" points="137.4,728.3 137.3,728.6 137.3,729.2 137.7,728 137.5,728"/>
	<polygon class="st2" points="137,729.4 136.9,729.8 136.7,730.2 136.6,730.3 136.4,730.7 136.3,731.1 136.1,731.4 136.1,731.7 136.3,731.6 137.3,729.2 137.1,729.2"/>
	<path class="st3" d="M110 702.5c-1.5 4.6 5.3 25.3 5.3 25.4c0.9 1.8 1.8 3.5 4.2 3.5l-0.1-0.4c-0.1-0.6 0.5-0.6 1.1-0.6 c0.3 0 0.4 0.3 0.9 0.5v3.1l0.2 5.5c0.4 0 1 1.1 1.8 1.1l0.4-2.6c0.3-0.1 0.3-0.2 0.7-0.2h0.1c0.4 0 1.3 0.4 1.3 0.7 c0 0.5-1 2-0.7 2.5c2.3 0 2.8-0.7 4.3-2.2c1.6-1.7 9.6-29.5 3.4-32.5c-0.6-0.3-1.3-0.4-1.8-0.5c-2.8 0-4.7 2.4-5.7 5 c-0.9 2.6-1.2 5.6-1.7 8.2h-0.2c-0.6-5.5-1.9-12.7-4.2-17.7C117.2 696.5 110.7 697.6 110 702.5L110 702.5z"/>
	<path class="st0" d="M134.9 701.4c6.8 13.6 4.5 23-1.3 36.2c-5.3 7.1-3.7 16.4-8.1 23.1c3.3-5.8 7.1-11.4 10.6-17 c4.3-7.2 9.3-16.4 8.6-25c-0.6-6.6-3.7-13.9-9.3-17.6l-0.2-0.2h-0.3V701.4z"/>
	<path class="st0" d="M120.2 762l-2.5 11.6l-1.4 18.6c-0.1-1.4-0.1-2.8-0.1-4.3c0-9.2 1.4-16.6 3-24.2c0.8-3.8 1.7-7.4 2.5-11.1 c0.8-3.4 2.3-8 2.3-11.4l0.4 0.7l0.3 0.3h0.3l0.1-0.1l0.2-0.7v-0.3c-0.3-0.5 0.7-2 0.7-2.5c0-0.3-0.9-0.7-1.3-0.7h-0.1 c-0.4 0-0.4 0.1-0.7 0.2l-0.4 2.6c-0.6 3.1-1.1 6.2-1.7 9.4l-1.5 6.9c-0.9 3.9-2.1 8.1-2.8 12.1c-0.6 3.6-1.9 9.2-1.9 13l-0.2-0.3 l-0.1-2.2c-0.6 0.9 0.2 11.5 0.5 12.8c0.3 2.1 0.4 4.1 0.9 6.1c0.2 1.3 0.9 4.8 0.9 5.7c0 0.1-3.9-14.8-3.9-22.4l-0.1-4.8l0.6-9.4 c-2.7-4-3.5-5.5-9.1-7.4c-3-1-6.7-0.9-9.2 1.3c11.1-1.3 13.8 8.5 15.3 17c1.2 6.7 3.4 18.6 3.6 25.5l6.6 0.4l-0.8-2.7 c-0.5-0.8-1-5.7-1-7.3c0.2-18.3 2-26.6 11.6-43.3c2.1-3.5 11.8-23.5 3.9-11.8c-0.9 1.4-2.1 3.3-2.9 4.7 C130.9 745.9 120.6 760.4 120.2 762L120.2 762z"/>
	<path class="st4" d="M114.1 767.5l-0.6 9.4l0.1 4.8c0 4.6 1.4 18.7 3.3 22.4l0 0l0.7 0.1l0 0c-0.1-1.1-0.8-4.5-1-5.7 c-0.5-2-0.5-3.9-0.9-6.1c-0.2-1.3-1-12-0.5-12.8c0-3.7 0.3-7.3 0.8-10.5c0.5-3 0.9-6.8 1.8-9.5c1.1-3.9 1.9-15.9-1.9-18.7 c1.4 6.1 2.2 10.5 1.5 16.7h-0.1c0-2.2 0.1-4.1 0-5.9c-0.1-3.9-1.4-11.4-4.7-13.8c0.2 0.9 1 2.3 1.4 3.3 C117.2 750.4 115.4 758 114.1 767.5L114.1 767.5z"/>
	<path class="st5" d="M135.7 732.9c0.2 0.2-7.4 13.5-9 15.2l-0.8 1.4l-4.3 7.9c0.8-4.7 3.4-10.9 3.4-15.3l0.2-1l-1.3 0.1 c0 1.4-0.7 4.3-1 5.8c-0.3 1.8-0.9 3.7-1.3 5.7c-0.8 3.7-1.7 7.3-2.5 11.1c-1.5 7.6-3 14.9-3 24.2c0 3.8 0.3 7.1 0.7 10.6 c0.2 1.5 0.6 3.3 0.9 4.7c-1.5-23 1.1-39 14.2-59.2c0.9-1.4 2-3.3 2.9-4.7c0.8-1.2 2.1-4.1 2.7-4.9c1.8-3.9 3.8-8.3 4.3-12.7 c0.1-1.3 0.3-4.3-0.3-5.1c0 3.2-2 9.1-3 11.5c-0.8 1.8-2.9 7.4-4 8.2L135.7 732.9z"/>
	<path class="st4" d="M115.3 781.7l0.2 0.3c0-3.8 1.3-9.4 1.9-13c0.7-4.1 1.9-8.2 2.8-12.1c0.5-5.5 1-11 1.4-16.5v-0.9l-0.1-8.6 c-0.7-0.7-1.5-0.9-2.7 0.2c1.5 11 2 19.6-0.6 30.5c-0.8 3.1-1.2 6.4-1.8 9.7C116 774.1 115.3 778.5 115.3 781.7L115.3 781.7z"/>
	<path class="st6" d="M63.1 705.7l-1.8 28.5l-1.2 8.9l-2.5 5.1l-0.2 5.8c-0.7 3.2-0.7 2.2-0.2 4.6l-2.1 2.9l0.4 3.7l-1.1 4.3 l-6.5-1.7l-0.8-1.4l-7.5-6.6l2.3-13.3c-1.9-5.3-2.4-26.4 0.6-34.7l13-30.1l3.3-3.8l-0.7-1.3l8.7-10.4l-6.9 16.7 C59.7 683.3 63.3 701.5 63.1 705.7L63.1 705.7z M56.8 712.1l-2.5-20.9l-4.2 32.2l-2.3 26.9l3.6-32C45.7 746 45.8 756 56.8 712.1 L56.8 712.1z"/>
	<path class="st6" d="M47.8 689.4c-3.5-5.5 3.5-12.1 2.6-19.1l-7.5 22l-1-5.9L55.8 648l1 0.3L47.8 689.4z"/>
	<polygon class="st6" points="58.1,676.5 58.8,677.8 55.6,681.6 52.5,664.2"/>
	<path class="st8" d="M101.9 716.3l-3.8-3.8l-1.7 1.1c3.6 5.4 7.9 16.7 10.8 19.3L101.9 716.3z"/>
	<path class="st10" d="M73.5 673c-1.5 6.2-6.7 11.7-9.4 18c-2.9 6.6-5.7 13.8-7.1 21.2c-3.1 15.2-2 35.6-2 53.7l-4.2-14.7l-1.4 10.7 l-2.3-12.7l-0.1 18.5H46l-2.8-75.2l9-30l-4.1 30.1l1.8 32.1l6-26.4L73.5 673z"/>
	<path class="st6" d="M72.3 756.4l-3.4 15.5c1.5-2.2 5.4-3.1 8-9.9l19.2-46.4l1-0.4l13.8 32.7c0-8.9-5.3-29-9.8-32.3l6.4 17.4 c-3-2.6-6.7-14-10.3-19.4l1-1l-5.9-1.1L72.3 756.4z"/>
	<path class="st6" d="M42 686.5l1 5.9l2.9 73.3l1 1.8L46 724.1l3.2 37.6l1.5-26.8l4.1 30.7l1.7 2.9l1.2-26.4l2.9-31.3v-4.9h0.9 l1.1 26.9l4.3-35.7c1.1 2.3 1.5 4.9 1.5 8.8v3.9c0 6.3-3.3 24.8-4.5 28.7c-3 9.8-2.4 19.8-2.4 31.9l-7.8-1l-9.8-1.9 c-1.9-0.3-2.9 0.5-4.9 1l-2-59.6l-7.2-59.6L42 686.5z"/>
	<path class="st7" d="M68.9 771.8l4.6 1.4c8.8-17.6 14.4-41 21.6-59.7c-7.4 2-17.7 42-22.5 48.9L68.9 771.8z"/>
	<path class="st7" d="M59 770.7c0-8.5 13.8-51.4 18.7-54.6l-3.9 13.7l4.1-3.9c-10.6 22.3-11.8 20.8-8.9 45.9l-5.9-1l-8.8-1.9l-1-1 c0-19.4 7.7-65 17.1-71.9L59 770.7z"/>
	<path class="st7" d="M33.2 738.5c2.7 4 4.2 3.1 6.1 8.7c1.3 3.8 4.8 9.6 7.3 12.5l-0.6 7.2c-3.9-1-3.2-2.9-7.8-2.9h-2.9 c-3.4 0-3.8 0.7-6.9 1v-2l8.2-1.7l-13.2-5.7l0.3-1.1l15.8 3.5l-3.2-5.7l-6.9-12.7l-0.8-1.1l-1.1 3.1v-1l1-4.9L33.2 738.5z"/>
	<polygon class="st6" points="30.3,750.1 29.3,751.1 27.4,741.3 28.5,738.2 29.3,739.3"/>
	<polygon class="st13" points="25.7,756.4 25.7,762.3 23.4,755.6"/>
	<path class="st1" d="M44.1 702.5l-1-0.3c0-1.7 1.1-3.1 1.6-4.6h0.5C45.1 699.2 44.5 701.1 44.1 702.5L44.1 702.5z"/>
	<polygon class="st1" points="23.2,703.3 23.4,703.5 23.5,704.2 23.6,704.5 23.8,704.8 23.9,705.4 24.1,705.5 24.2,706.3 24.4,706.6 24.6,707.1 24.7,707.7 24.8,708.3 25,708.4 25.1,709.3 25.2,709.6 25.2,710 23.9,710.3 23.8,710 23.6,709.1 23.5,708.7 23.4,707.4 23.2,707.1 23.1,706.1 23,705.3 22.8,703.5 22.8,703.3 23,703.1 23.1,703.1"/>
	<path class="st2" d="M18 731.9l0.2 0.4l0.1 0.3v0.6L18 733c0-0.7-0.5-1.1-0.1-1.4L18 731.9z"/>
	<polygon class="st2" points="18.6,733.5 18.8,733.8 18.8,734.4 18.3,733.2 18.5,733.2"/>
	<polygon class="st2" points="19.1,734.6 19.2,735 19.4,735.5 19.5,735.6 19.6,736 19.8,736.4 19.9,736.7 19.9,737.1 19.7,737 18.8,734.4 18.9,734.4"/>
	<path class="st3" d="M47.2 706.6c1.7 4.9-5.4 26.4-5.5 26.6c-0.9 1.8-1.9 3.6-4.4 3.6l0.1-0.4c0.1-0.6-0.5-0.6-1.1-0.6 c-0.3 0-0.4 0.3-1 0.4v3.3l-0.1 5.8c-0.5 0-1.1 1.1-1.9 1.1l-0.4-2.7c-0.3-0.1-0.3-0.1-0.7-0.1H32c-0.4 0-1.3 0.4-1.3 0.7 c0 0.5 1 2.1 0.7 2.6c-2.4 0-3-0.7-4.5-2.3c-1.7-1.8-10-30.9-3.6-34c0.7-0.3 1.4-0.4 1.9-0.5c3 0 4.9 2.6 5.9 5.3 c1 2.7 1.3 5.8 1.8 8.6h0.3c0.6-5.7 1.9-13.2 4.3-18.5C39.7 700.3 46.5 701.4 47.2 706.6L47.2 706.6z"/>
	<path class="st0" d="M21.2 705.4c-7.1 14.2-4.8 24 1.3 37.8c5.6 7.4 3.9 17.1 8.4 24.2c-3.4-6.1-7.4-11.9-11-17.8 c-4.5-7.5-9.7-17.1-8.9-26.1c0.6-6.9 3.8-14.5 9.7-18.4L21 705h0.3V705.4z"/>
	<path class="st0" d="M36.6 768.6l2.6 12.2l1.5 19.4c0.1-1.4 0.1-2.9 0.1-4.5c0-9.7-1.5-17.3-3.1-25.2c-0.8-4-1.7-7.8-2.6-11.7 c-0.8-3.5-2.3-8.3-2.3-11.9l-0.5 0.7L32 748h-0.3l-0.1-0.2l-0.2-0.7v-0.3c0.3-0.5-0.7-2.1-0.7-2.6c0-0.3 0.9-0.7 1.3-0.7h0.2 c0.4 0 0.4 0.1 0.7 0.1l0.4 2.7c0.6 3.3 1.1 6.5 1.7 9.8l1.6 7.2c0.9 4.1 2.2 8.5 2.9 12.7c0.6 3.7 2 9.6 2 13.5l0.1-0.3l0.2-2.3 c0.6 0.9-0.3 12-0.5 13.5c-0.3 2.2-0.4 4.2-0.9 6.3c-0.3 1.3-1 5-1 5.9c0 0.1 4.1-15.5 4.1-23.4l0.1-5.1l-0.6-9.8 c2.8-4.2 3.7-5.7 9.5-7.7c3.1-1 7-0.9 9.6 1.4c-11.6-1.4-14.4 8.9-16 17.8c-1.3 7-3.6 19.5-3.8 26.7l-6.9 0.4l0.8-2.8 c0.6-0.9 1.1-5.9 1.1-7.6c-0.1-19.2-2.1-27.7-12.1-45.2c-2.1-3.7-12.3-24.6-4.1-12.3c1 1.4 2.2 3.4 3.1 5 C25.4 751.9 36.1 767 36.6 768.6L36.6 768.6z"/>
	<path class="st4" d="M42.9 774.4l0.6 9.8l-0.1 5.1c0 4.7-1.5 19.5-3.4 23.4l0 0l-0.7 0.1l0 0c0.1-1.2 0.9-4.7 1.1-5.9 c0.5-2.1 0.5-4.2 0.9-6.3c0.2-1.4 1.1-12.6 0.5-13.5c0-3.8-0.3-7.6-0.9-10.9c-0.5-3.2-1-7.1-1.8-10c-1.3-4.1-2.1-16.6 1.9-19.5 c-1.5 6.3-2.3 10.9-1.5 17.4h0.1c0-2.2 0-4.2 0-6.2c0.1-4.1 1.5-11.9 4.9-14.4c-0.2 1-1.1 2.4-1.4 3.5 C39.7 756.5 41.5 764.5 42.9 774.4L42.9 774.4z"/>
	<path class="st5" d="M20.4 738.3c-0.2 0.3 7.8 14.2 9.4 15.9l0.9 1.4l4.4 8.2c-0.8-5-3.5-11.4-3.5-16l-0.2-1l1.3 0.1 c0 1.5 0.7 4.5 1 6c0.4 1.9 0.9 3.9 1.4 5.9c0.9 3.9 1.8 7.7 2.6 11.7c1.7 7.9 3.1 15.5 3.1 25.2c0 3.9-0.3 7.5-0.7 11.1 c-0.2 1.6-0.6 3.4-0.9 4.9c1.6-24-1.2-40.7-14.8-61.7c-0.9-1.5-2.1-3.5-3.1-5c-0.9-1.3-2.1-4.3-2.9-5.1c-1.8-4.2-3.9-8.7-4.5-13.2 c-0.1-1.3-0.3-4.5 0.3-5.3c0 3.4 2.1 9.5 3.1 11.9c0.9 1.9 3 7.7 4.2 8.6L20.4 738.3z"/>
	<path class="st4" d="M41.6 789.2l-0.1 0.3c0-3.9-1.4-9.8-2-13.5c-0.7-4.2-2-8.6-2.9-12.7c-0.5-5.7-1-11.5-1.4-17.2v-0.9l0.1-9.1 c0.7-0.7 1.5-0.9 2.8 0.3c-1.6 11.5-2.1 20.5 0.6 31.9c0.8 3.3 1.2 6.7 1.8 10.1C41.1 781.4 41.6 785.9 41.6 789.2L41.6 789.2z"/>
	<path class="st0" d="M87 796.3c3 0 7.3-0.5 10.4-1.9c2.5-1.1 4.8-3.4 4.8-5.8c3.7 0.3 2.5 7.5 2 9.1c-1.4 5-5.2 9.8-15.1 11.6 c-9.6 1.7-18.4-1-21-8.1c-4.7-13 17.2-20.8 28.7-16.3C104.6 788 88 794 87 796.3L87 796.3z"/>
	<path class="st1" d="M57.8 727.9l1-0.3c0-1.7-1-3.1-1.5-4.6h-0.5C56.8 724.5 57.3 726.4 57.8 727.9L57.8 727.9z"/>
	<polygon class="st1" points="78.7,728.6 78.5,728.9 78.4,729.6 78.2,729.9 78.1,730.2 77.9,730.7 77.8,730.9 77.6,731.6 77.5,731.9 77.4,732.5 77.2,733.1 77.1,733.6 77,733.8 76.8,734.6 76.7,734.9 76.7,735.3 77.9,735.6 78.1,735.3 78.2,734.5 78.4,734 78.5,732.8 78.7,732.5 78.8,731.5 79,730.6 79.1,728.9 79.1,728.6 79,728.4 78.8,728.4"/>
	<path class="st2" d="M83.9 757.2l-0.2 0.4l-0.2 0.3v0.6l0.3-0.1c0-0.7 0.5-1.1 0.1-1.4L83.9 757.2z"/>
	<polygon class="st2" points="83.2,758.8 83.1,759 83.1,759.8 83.5,758.5 83.4,758.5"/>
	<polygon class="st2" points="82.8,759.9 82.7,760.4 82.6,760.8 82.4,760.9 82.3,761.4 82.1,761.8 82,762.1 82,762.4 82.2,762.4 83.1,759.8 83,759.8"/>
	<path class="st3" d="M54.6 731.9c-1.6 4.9 5.5 26.4 5.5 26.6c0.9 1.9 1.9 3.7 4.4 3.7l-0.1-0.5c-0.1-0.6 0.5-0.5 1.1-0.5 c0.3 0 0.4 0.3 1 0.4v3.3l0.2 5.8c0.4 0 1.1 1.1 1.9 1.1L69 769c0.3-0.1 0.3-0.1 0.7-0.1h0.1c0.5 0 1.3 0.4 1.3 0.7 c0 0.5-1 2.1-0.7 2.6c2.5 0 3-0.7 4.5-2.3c1.7-1.8 10-30.8 3.5-34c-0.6-0.3-1.3-0.4-1.8-0.5c-3 0-5 2.5-5.9 5.3 c-1 2.6-1.2 5.8-1.7 8.6h-0.3c-0.6-5.8-1.9-13.3-4.3-18.5C62.2 725.6 55.4 726.7 54.6 731.9L54.6 731.9z"/>
	<path class="st0" d="M80.7 730.7c7.1 14.3 4.7 24-1.3 37.9c-5.5 7.4-3.9 17.1-8.4 24.2c3.4-6.1 7.4-11.9 11-17.8 c4.6-7.5 9.7-17.1 9-26.1c-0.6-6.9-3.8-14.5-9.7-18.4l-0.3-0.1h-0.3V730.7z"/>
	<path class="st0" d="M65.3 793.9l-2.6 12.2l-1.4 19.4c-0.1-1.4-0.1-2.9-0.1-4.5c0-9.7 1.5-17.3 3.1-25.2c0.8-4 1.7-7.7 2.5-11.6 c0.8-3.5 2.4-8.3 2.4-11.9l0.5 0.7l0.2 0.3h0.3l0.2-0.2l0.1-0.7v-0.3c-0.3-0.5 0.7-2.1 0.7-2.6c0-0.3-0.9-0.7-1.3-0.7h-0.1 c-0.4 0-0.4 0.1-0.7 0.1l-0.4 2.7c-0.7 3.3-1.1 6.5-1.8 9.8l-1.5 7.2c-1 4.1-2.2 8.4-2.9 12.6c-0.6 3.8-2 9.6-2 13.5l-0.1-0.3 l-0.2-2.3c-0.6 0.9 0.2 12 0.5 13.5c0.3 2.2 0.4 4.2 0.9 6.3c0.2 1.3 1 4.9 1 5.9c0 0.1-4.1-15.5-4.1-23.5l-0.1-5l0.6-9.8 c-2.8-4.2-3.7-5.7-9.5-7.7c-3.1-1-7-0.9-9.6 1.4c11.5-1.4 14.4 8.9 16 17.7c1.3 7 3.5 19.5 3.7 26.7l6.9 0.5l-0.9-2.8 c-0.5-0.9-1.1-5.9-1.1-7.7c0.2-19.1 2.1-27.7 12.2-45.2c2.1-3.7 12.3-24.5 4.1-12.3c-1 1.5-2.2 3.4-3.1 5 C76.5 777.2 65.7 792.3 65.3 793.9L65.3 793.9z"/>
	<path class="st4" d="M59 799.8l-0.6 9.8l0.1 5c0 4.8 1.5 19.5 3.4 23.4c0 0.1 0 0 0 0.1l0.7 0.1l0 0c-0.1-1.2-0.9-4.7-1.1-5.9 c-0.5-2.1-0.5-4.2-0.9-6.3c-0.3-1.4-1.1-12.6-0.5-13.5c0-3.8 0.3-7.6 0.9-10.9c0.5-3.2 1-7.1 1.8-10c1.2-4.1 2-16.6-1.9-19.5 c1.5 6.4 2.3 11 1.5 17.4h-0.1c0-2.2 0-4.2 0-6.2c-0.1-4.1-1.5-11.9-4.9-14.4c0.2 1 1 2.4 1.4 3.5C62.2 781.9 60.4 789.9 59 799.8 L59 799.8z"/>
	<path class="st5" d="M81.4 763.6c0.3 0.3-7.7 14.2-9.4 15.9l-0.9 1.4l-4.5 8.2c0.8-5 3.6-11.4 3.6-16l0.1-1l-1.3 0.1 c0 1.5-0.7 4.5-1 6c-0.3 1.9-0.9 3.9-1.4 5.9c-0.9 3.9-1.7 7.7-2.5 11.6c-1.7 7.9-3.1 15.5-3.1 25.2c0 3.9 0.3 7.5 0.7 11 c0.2 1.7 0.6 3.4 1 5c-1.6-24 1.1-40.8 14.8-61.8c0.9-1.5 2.1-3.5 3.1-5c0.8-1.2 2.1-4.2 2.8-5c1.9-4.2 3.9-8.7 4.5-13.2 c0.2-1.4 0.3-4.5-0.2-5.3c0 3.3-2.1 9.5-3.2 11.9c-0.8 1.9-3 7.7-4.2 8.6L81.4 763.6z"/>
	<path class="st4" d="M60.3 814.5l0.1 0.3c0-3.9 1.4-9.8 2-13.5c0.7-4.2 1.9-8.6 2.9-12.6c0.5-5.8 1-11.5 1.4-17.2v-0.9l-0.2-9.1 c-0.7-0.7-1.5-0.9-2.7 0.3c1.5 11.4 2.1 20.5-0.6 31.9c-0.8 3.3-1.2 6.7-1.8 10.1C60.9 806.7 60.3 811.2 60.3 814.5L60.3 814.5z"/>
	<polygon class="st30" points="112.9,811.7 98.9,813.2 87.9,802.9 94.2,804.3 91.9,797 97.7,801.9 102.1,795.6 104.9,803.8 112.2,803.7 109.1,808.9"/>
	<path class="st31" d="M98.7 812.9c-2.8 7-3.3 14.6-1.9 22.6h0.6c-0.9-7.3-0.8-14.6 2.1-22.4L98.7 812.9z"/>
	<polygon class="st32" points="102.1,806.3 102.2,795.8 97.7,801.9 92.2,797.5 99.3,807.9 89.4,803.4 99,812.8 112.5,811.6 101.1,809.3 109.1,808.9 112.2,803.7"/>
	<rect x="101.3" y="847.6" class="st28" width="1.2" height="1.3"/>
	<rect x="120.4" y="847.4" class="st28" width="1.2" height="1.3"/>
	<g>
		<path class="st25" d="M203.6 285.7c1.7-0.7 2.3-3.1 1.3-5.5c-0.9-2.4-3.1-3.7-4.7-3.1c-1.7 0.7-2.2 3.1-1.3 5.5 C199.9 284.9 201.9 286.3 203.6 285.7L203.6 285.7z"/>
		<path class="st26" d="M203.1 283.9c1.3-0.5 1.8-2.5 1-4.4s-2.5-3-3.8-2.5c-1.3 0.5-1.8 2.5-1 4.4S201.8 284.5 203.1 283.9 L203.1 283.9z"/>
		<path class="st27" d="M202 278.8c1.1-0.4 2.2 0.1 2.6 1.2c0.1 0.2 0.1 0.3 0.1 0.4l-1.5 0.4l1.3 1c-0.2 0.4-0.6 0.8-1.1 1 c-1 0.4-2.2-0.2-2.6-1.2C200.5 280.4 201 279.2 202 278.8L202 278.8z"/>
		
			<rect x="202" y="280.6" transform="matrix(-0.9286 0.3711 -0.3711 -0.9286 494.3562 466.6988)" class="st28" width="0.6" height="0.7"/>
		<path class="st29" d="M204.4 281.6L204.4 281.6c-0.1 0.5-0.4 0.8-0.9 1c-1 0.4-2.1-0.1-2.5-1.1c-0.3-0.9 0-1.8 0.7-2.3 c-0.2 0.4-0.2 0.9 0 1.4c0.4 1 1.5 1.5 2.5 1.1C204.2 281.7 204.3 281.7 204.4 281.6L204.4 281.6z"/>
		<path class="st14" d="M191.3 334.7c14.1 0 25.6-4.3 25.6-9.5c0-5.2-11.5-9.5-25.6-9.5c-14.1 0-25.5 4.3-25.5 9.5 C165.7 330.4 177.2 334.7 191.3 334.7L191.3 334.7z"/>
		<path class="st15" d="M191.3 332.5c12.1 0 22-3.5 22-7.7s-9.9-7.7-22-7.7c-12.1 0-22 3.5-22 7.7S179.2 332.5 191.3 332.5 L191.3 332.5z"/>
		<path class="st39" d="M206.5 277.2c1 1.8 1.7 3.9 1.6 4.6c0 0.2-0.5 0-0.7 0c-0.2 0-0.5 0.1-0.7 0.2c-0.7 0.2-1.7 1.5-1.7 1.6 c-0.5-1.2-0.1-2.9-0.9-4.4c-0.5-1-2-2.4-4.5-1.8c-1.7 0.6-0.5 3.2-0.3 4.7c-1.4-0.3-1.2-0.7-2.7-0.5c-6.8-0.7-4.4 0.9-5.2 1.1 l-3.1 0.7l1.3 0.7c-0.5 0.7-0.1 0.6-0.9 1c-5.6 1.7 0.5 7 2.9 9.2c0.1 0 0.1 0.1 0.1 0.1c0.1 0 0.1 0.1 0.2 0.1l1 0.4 c1.6 0.3 4.2 0.4 5.6-0.1c2.1-0.7 2.8-3 4-3.5c0.9 0 2.1 0.1 2.4 0.1c0.7 0-0.5-0.1-1.4 1.3c-0.6 1.7-1.1 2-0.2 4.5 c1.9 4.8 5.3 7.6 7.1 11.7c1.1 2.6 1.5 3.5 1.2 6.9c-1.5 9.5-7.5 11.9-14.1 12.3l0.2-1.7c-3.1 3.3-5.7 3.5-10 2.3 c-1.1-0.7 0.4-0.4-1.5-0.9c-5.2-1.5-8.5-3.6-11.7-8.9c0.1-0.1 0.2-0.1 0.2-0.1l1.2-0.2c-1.6-1-3.5-3.9-2.5-5.9 c1.2-0.3 1.4 0.1 1.5 0.6c-0.2-3.1-0.4-4.2 2.3-5.3l0.4 2.1c1.5-0.7 1.2-1.2 3.4-1.3l-0.3 0.5c-0.8 1.2-0.7 0.8-0.5 1.9 c2.3 0.4 4.5-3.1 9-4.1c7.1-1.6 8.2-0.5 7.8-5.3c-1-1.4-0.7-2.2-2.2-3.2c-0.3-0.8 0-0.5-0.9-0.9c0.8-0.6-1.4-2.1-2.2-2.5 c-1.5-0.9-1.9-1.5-3.1-2.4c-1.6-1.8-2.9-4-3.2-7.3c-0.2-1.9 0.3-3.6 0.2-5c-0.1-1.6-0.8-1.8-0.8-4.3l1.8 0.9 c-0.4-1.4 0.1-2.3 0.5-3.4c0.7 0.3 1 1.3 2.5 0.8c1.4-0.5 0.3 0 0.8-0.6c1.1 0 3.6-1.6 6.2-1.7C201.8 272 204.4 273.3 206.5 277.2 L206.5 277.2z"/>
		<path class="st40" d="M218.1 288c1.3 3.4-2.7 3.7-4.1 4.4c-2 0.4-3.7 0.5-6 0c-0.6-0.1-1.7-0.7-2.7-0.9c-1.6-0.2-3 0-3.2-0.1 c-1.9-0.6-1.9-0.3-2.5-2.1c-0.5-2.3 1-3.2 2.1-3.8c-0.3-0.1-1-1.9-1.8-2.4c-0.8-0.5-2.3-1.1-3.1-1.5c1.5-0.1 1.3 0.2 2.7 0.5 c-5.6-0.3-3.4 5.7 3.5 2.9c0.7-0.3 1.2-0.2 2-0.4c0.1 0.3-0.3-0.9 0.3-1.3c-0.3-0.2 1.5-1.7 2.3-1.6c0.9 0 1.8 1.2 2.2 2.6 C212.3 291 215.2 286.9 218.1 288L218.1 288z"/>
		<path class="st41" d="M200.2 290.5c0.6 0.5 1.7 0.9 2.5 1c-1.2 0.5-2.1 2.7-4.2 3.5c-1.4 0.5-4 0.4-5.6 0.1l-1-0.4 c-0.1 0-0.1-0.1-0.2-0.1c0 0-0.1-0.1-0.1-0.1c-2.4-2.2-8.5-7.5-2.9-9.2c1.5-0.3 4.9 0.9 8.1 1.3l1.5 0.3c0.5 0.2-0.1 0.3 1.3 0.2 c0 1-0.3 1.1-0.2 1.7c0 0.1 0 0.2 0 0.3c0 0.1 0 0.2 0.1 0.3C199.6 289.7 199.3 289.7 200.2 290.5L200.2 290.5z"/>
		<path class="st42" d="M207.2 284.5c0.7-0.5 2.1 1.1 0.6 1.6C207.2 286.2 206.7 284.8 207.2 284.5L207.2 284.5z"/>
		<path class="st43" d="M205.5 286.9c-0.9 0.4-2 0.9-2 2"/>
		<path class="st17" d="M201 275.4c-0.2-0.5-3.4-0.3-3.5 1.4c0 0 0.1 0.7 0.1 0.5C197.8 275.7 201.1 275.6 201 275.4L201 275.4z"/>
		<path class="st44" d="M201.7 285.4c-0.6 0.7-1.9 0.6-2.2 2.7c-0.1-0.7 0.2 0.1 0.2-1.1c-2.6 0.5-8.7-1.9-10.9-1.8 c0.8-0.4 0.4-0.3 0.9-1l-1.3-0.7l3.1-0.7c0.6-0.2-0.8-1.3 2.3-1.3c0.9 0 2.6-0.3 4.3 0.3C200.3 282.4 202.5 284.2 201.7 285.4 L201.7 285.4z"/>
		<path class="st43" d="M204.5 287.5c0.1 0.1 2.1 2.3 2.4 2.7c1.2 1.3 3.2 1.7 5 1.7c1.4 0.1 6.4-1 6.4-2.7c0-1.3-1.2-1.6-1.9-1.3 c-6.9 2.9-6.1-6.1-9-6c-1.1 0-2.6 1.3-2.5 2.9c-2.1 0.1-5.5 1.2-5.5 3.5c0 2.3 0.7 2.1 2.3 3.1c0.5 0.3 3.2-0.1 4.2 0.4 c1.4 0.8 5.4 1 7.1 0.9c1.1-0.1 4.6-1.1 4.6-2.5"/>
		<path class="st44" d="M195.1 307.9c-4.5 0.3-10.3 2.2-6.6 3.2c1.1 0.3 1.7 0.3-0.9 0.4c-2.3 0-5.2 1.8-0.1 2.1 c1.9 0.2 0.8 0.3-1 0.4c-4.1 0.2-6.9 2-1.4 3.2c1.4 0.3 1.8 0.9-1.6 0.3c-5-0.9-2.7 2.3 1 3.5c10 3.4 19-4.7 18.4-9.7 C202.5 307.4 197.8 307.8 195.1 307.9L195.1 307.9z"/>
		<path class="st45" d="M186.6 288.4c0.7 2.1 3.6 4.6 5.1 6c0 0 0.1 0.1 0.1 0.1c0 0.1 0.1 0.1 0.1 0.1l1 0.4 c0.2 0.1 0.5 0.1 0.7 0.1c0.3 0.4 0.4 0.7 0.1 0.9c0.9 0.3 0.6 0 0.9 0.8c1.4 1 1.2 1.8 2.1 3.2c0.1 0.9 0.1 1.6 0 2.2 c0-0.1 0-0.2 0-0.3c-0.9-1.4-0.7-2.2-2.1-3.2c-0.3-0.8 0-0.5-0.9-0.8c0.8-0.6-1.4-2.1-2.2-2.6c-1.5-0.9-1.9-1.5-3.1-2.4 c-1.6-1.8-2.9-4-3.2-7.3c-0.1-0.7 0-1.3 0-1.8C185.5 285.7 186 287.2 186.6 288.4L186.6 288.4z M211.8 313.1 c0.1 0.7 0 1.6-0.1 2.8c-1.5 9.5-7.5 11.9-14.1 12.3l0.2-1.7c-3 3.3-5.7 3.5-10 2.3c-1.1-0.7 0.3-0.4-1.5-0.9 c-5.2-1.5-8.6-3.6-11.7-8.9c0.1-0.1 0.2-0.1 0.2-0.1l0.9-0.1c2.9 4.1 6 5.9 10.7 7.2c1.9 0.5 0.4 0.2 1.5 0.9c4.3 1.2 7 1 10-2.3 l-0.2 1.7c6.6-0.3 12.6-2.8 14.1-12.3C211.7 313.7 211.7 313.4 211.8 313.1L211.8 313.1z M173.5 312.9c0.5 1.9 3.6 5.6 2.7 5.9 h-0.2C175.4 318.6 172.2 315 173.5 312.9L173.5 312.9z M174.7 311.1c0-0.2 0-0.4 0.1-0.6c0 0.3 0.1 0.7 0.1 1 C174.8 311.4 174.8 311.3 174.7 311.1L174.7 311.1z M180 309.1c0.2 0 0.5 0 0.9 0l-0.3 0.5l0 0c-0.2 0-0.3 0-0.5 0 C180 309.4 180 309.2 180 309.1L180 309.1z M185.5 280.2c-0.2-1.3-0.8-1.6-0.7-3.9l0.2 0.1c0.2 0.9 0.5 1.3 0.6 2.4 C185.6 279.2 185.5 279.7 185.5 280.2L185.5 280.2z"/>
		<path class="st45" d="M195.1 307.9c-4.5 0.3-10.3 2.2-6.6 3.2c0.2 0.1 0.4 0.1 0.6 0.1c1.4-0.1 0.9-0.1 0-0.3 c-3.2-0.9 1.8-2.6 5.8-2.8c2.4-0.1 6.5-0.5 6.9 3c0.5 4.4-7.4 11.5-16.2 8.5c-1.6-0.5-2.9-1.5-3.3-2.2c-3.3-0.2-1.1 2.5 2.2 3.6 c10 3.4 19-4.7 18.4-9.7C202.5 307.4 197.8 307.8 195.1 307.9L195.1 307.9z M186.4 311.7c-1.7 0.4-2.9 1.5 0 1.9 c0.3 0 0.6-0.1 0.9-0.1c1.6-0.1 2.5-0.2 0.9-0.3C185.1 313 185.3 312.2 186.4 311.7L186.4 311.7z M183.6 314.6 c-1.5 0.5-2.1 1.3-0.8 2c0.4-0.1 1.1-0.1 2 0.1c3 0.5 2.6 0 1.4-0.3C183.6 315.8 183.1 315.1 183.6 314.6L183.6 314.6z"/>
	</g>
	<g>
		<path class="st25" d="M143.1 274.9c1.7-0.7 2.3-3.1 1.3-5.5c-0.9-2.4-3.1-3.7-4.7-3.1c-1.7 0.7-2.2 3.1-1.3 5.5 C139.4 274.2 141.5 275.5 143.1 274.9L143.1 274.9z"/>
		<path class="st26" d="M142.6 273.2c1.3-0.5 1.8-2.5 1-4.4c-0.8-1.9-2.5-3-3.8-2.5c-1.3 0.5-1.8 2.5-1 4.4S141.3 273.7 142.6 273.2 L142.6 273.2z"/>
		<path class="st27" d="M141.5 268.1c1.1-0.4 2.2 0.1 2.6 1.2c0.1 0.2 0.1 0.3 0.1 0.4l-1.5 0.4l1.3 1c-0.2 0.4-0.6 0.8-1.1 1 c-1 0.4-2.2-0.2-2.6-1.2C140 269.7 140.5 268.5 141.5 268.1L141.5 268.1z"/>
		
			<rect x="141.5" y="269.8" transform="matrix(-0.9286 0.3711 -0.3711 -0.9286 373.7751 468.3627)" class="st28" width="0.6" height="0.7"/>
		<path class="st29" d="M143.9 270.8L143.9 270.8c-0.1 0.5-0.4 0.8-0.9 1c-1 0.4-2.1-0.1-2.5-1.1c-0.3-0.9 0-1.8 0.7-2.3 c-0.2 0.4-0.2 0.9 0 1.4c0.4 1 1.5 1.5 2.5 1.1C143.8 270.9 143.8 270.9 143.9 270.8L143.9 270.8z"/>
		<path class="st14" d="M130.8 323.9c14.1 0 25.6-4.3 25.6-9.5c0-5.2-11.5-9.5-25.6-9.5s-25.5 4.3-25.5 9.5 C105.3 319.6 116.7 323.9 130.8 323.9L130.8 323.9z"/>
		<path class="st15" d="M130.8 321.7c12.1 0 22-3.5 22-7.7s-9.9-7.7-22-7.7c-12.1 0-22 3.5-22 7.7S118.7 321.7 130.8 321.7 L130.8 321.7z"/>
		<path class="st39" d="M146.1 266.5c1 1.8 1.7 3.9 1.6 4.6c0 0.2-0.5 0-0.7 0c-0.2 0-0.5 0.1-0.7 0.2c-0.7 0.2-1.7 1.5-1.7 1.6 c-0.5-1.2-0.1-2.9-0.9-4.4c-0.5-1-2-2.4-4.5-1.8c-1.7 0.6-0.5 3.2-0.3 4.7c-1.4-0.3-1.2-0.7-2.7-0.5c-6.8-0.7-4.4 0.9-5.2 1.1 l-3.1 0.7l1.3 0.7c-0.5 0.7-0.1 0.6-0.9 1c-5.6 1.7 0.5 7 2.9 9.2c0.1 0 0.1 0.1 0.1 0.1c0.1 0 0.1 0.1 0.2 0.1l1 0.4 c1.6 0.3 4.2 0.4 5.6-0.1c2.1-0.7 2.8-3 4-3.5c0.9 0 2.1 0.1 2.4 0.1c0.7 0-0.5-0.1-1.4 1.3c-0.6 1.7-1.1 2-0.2 4.5 c1.9 4.8 5.3 7.6 7.1 11.7c1.1 2.6 1.5 3.5 1.2 6.9c-1.5 9.5-7.5 11.9-14.1 12.3l0.2-1.7c-3.1 3.3-5.7 3.5-10 2.3 c-1.1-0.7 0.4-0.4-1.5-0.9c-5.2-1.5-8.5-3.6-11.7-8.9c0.1-0.1 0.2-0.1 0.2-0.1l1.2-0.2c-1.6-1-3.5-3.9-2.5-5.9 c1.2-0.3 1.4 0.1 1.5 0.6c-0.2-3.1-0.4-4.2 2.3-5.3l0.4 2.1c1.5-0.7 1.2-1.2 3.4-1.3l-0.3 0.5c-0.8 1.2-0.7 0.8-0.5 1.9 c2.3 0.4 4.5-3.1 9-4.1c7.1-1.6 8.2-0.5 7.8-5.3c-1-1.4-0.7-2.2-2.2-3.2c-0.3-0.8 0-0.5-0.9-0.9c0.8-0.6-1.4-2.1-2.2-2.5 c-1.5-0.9-1.9-1.5-3.1-2.4c-1.6-1.8-2.9-4-3.2-7.3c-0.2-1.9 0.3-3.6 0.2-5c-0.1-1.6-0.8-1.8-0.8-4.3l1.8 0.9 c-0.4-1.4 0.1-2.3 0.5-3.4c0.7 0.3 1 1.3 2.5 0.8c1.4-0.5 0.3 0 0.8-0.6c1.1 0 3.6-1.6 6.2-1.7 C141.3 261.3 143.9 262.5 146.1 266.5L146.1 266.5z"/>
		<path class="st40" d="M157.6 277.3c1.3 3.4-2.7 3.7-4.1 4.4c-2 0.4-3.7 0.5-6 0c-0.6-0.1-1.7-0.7-2.7-0.9c-1.6-0.2-3 0-3.2-0.1 c-1.9-0.6-1.9-0.3-2.5-2.1c-0.5-2.3 1-3.2 2.1-3.8c-0.3-0.1-1-1.9-1.8-2.4c-0.8-0.5-2.3-1.1-3.1-1.5c1.5-0.1 1.3 0.2 2.7 0.5 c-5.6-0.3-3.4 5.7 3.5 2.9c0.7-0.3 1.2-0.2 2-0.4c0.1 0.3-0.3-0.9 0.3-1.3c-0.3-0.2 1.5-1.7 2.3-1.6c0.9 0 1.8 1.2 2.2 2.6 C151.8 280.3 154.8 276.2 157.6 277.3L157.6 277.3z"/>
		<path class="st41" d="M139.8 279.7c0.6 0.5 1.7 0.9 2.5 1c-1.2 0.5-2.1 2.7-4.2 3.5c-1.4 0.5-4 0.4-5.6 0.1l-1-0.4 c-0.1 0-0.1-0.1-0.2-0.1c0 0-0.1-0.1-0.1-0.1c-2.4-2.2-8.5-7.5-2.9-9.2c1.5-0.3 4.9 0.9 8.1 1.3l1.5 0.3c0.5 0.2-0.1 0.3 1.3 0.2 c0 1-0.3 1.1-0.2 1.7c0 0.1 0 0.2 0 0.3c0 0.1 0 0.2 0.1 0.3C139.2 278.9 138.9 278.9 139.8 279.7L139.8 279.7z"/>
		<path class="st42" d="M146.8 273.7c0.7-0.5 2.1 1.1 0.6 1.6C146.7 275.5 146.3 274.1 146.8 273.7L146.8 273.7z"/>
		<path class="st43" d="M145.1 276.1c-0.9 0.4-2 0.9-2 2"/>
		<path class="st17" d="M140.6 264.6c-0.2-0.5-3.4-0.3-3.5 1.4c0 0 0.1 0.7 0.1 0.5C137.4 264.9 140.7 264.9 140.6 264.6 L140.6 264.6z"/>
		<path class="st44" d="M141.3 274.6c-0.6 0.7-1.9 0.6-2.2 2.7c-0.1-0.7 0.2 0.1 0.2-1.1c-2.6 0.5-8.7-1.9-10.9-1.8 c0.8-0.4 0.4-0.3 0.9-1l-1.3-0.7l3.1-0.7c0.6-0.2-0.8-1.3 2.3-1.3c0.9 0 2.6-0.3 4.3 0.3C139.9 271.7 142.1 273.4 141.3 274.6 L141.3 274.6z"/>
		<path class="st43" d="M144 276.7c0.1 0.1 2.1 2.3 2.4 2.7c1.2 1.3 3.2 1.7 5 1.7c1.4 0.1 6.4-1 6.4-2.7c0-1.3-1.2-1.6-1.9-1.3 c-6.9 2.9-6.1-6.1-9-6c-1.1 0-2.6 1.3-2.5 2.9c-2.1 0.1-5.5 1.2-5.5 3.5c0 2.3 0.7 2.1 2.3 3.1c0.5 0.3 3.2-0.1 4.2 0.4 c1.4 0.8 5.4 1 7.1 0.9c1.1-0.1 4.6-1.1 4.6-2.5"/>
		<path class="st44" d="M134.6 297.2c-4.5 0.3-10.3 2.2-6.6 3.2c1.1 0.3 1.7 0.3-0.9 0.4c-2.3 0-5.2 1.8-0.1 2.1 c1.9 0.2 0.8 0.3-1 0.4c-4.1 0.2-6.9 2-1.4 3.2c1.4 0.3 1.8 0.9-1.6 0.3c-5-0.9-2.7 2.3 1 3.5c10 3.4 19-4.7 18.4-9.7 C142 296.6 137.3 297 134.6 297.2L134.6 297.2z"/>
		<path class="st45" d="M126.2 277.7c0.7 2.1 3.6 4.6 5.1 6c0 0 0.1 0.1 0.1 0.1c0 0.1 0.1 0.1 0.1 0.1l1 0.4 c0.2 0.1 0.5 0.1 0.7 0.1c0.3 0.4 0.4 0.7 0.1 0.9c0.9 0.3 0.6 0 0.9 0.8c1.4 1 1.2 1.8 2.1 3.2c0.1 0.9 0.1 1.6 0 2.2 c0-0.1 0-0.2 0-0.3c-0.9-1.4-0.7-2.2-2.1-3.2c-0.3-0.8 0-0.5-0.9-0.8c0.8-0.6-1.4-2.1-2.2-2.6c-1.5-0.9-1.9-1.5-3.1-2.4 c-1.6-1.8-2.9-4-3.2-7.3c-0.1-0.7 0-1.3 0-1.8C125 274.9 125.5 276.4 126.2 277.7L126.2 277.7z M151.3 302.3 c0.1 0.7 0 1.6-0.1 2.8c-1.5 9.5-7.5 11.9-14.1 12.3l0.2-1.7c-3 3.3-5.7 3.5-10 2.3c-1.1-0.7 0.3-0.4-1.5-0.9 c-5.2-1.5-8.6-3.6-11.7-8.9c0.1-0.1 0.2-0.1 0.2-0.1l0.9-0.1c2.9 4.1 6 5.9 10.7 7.2c1.9 0.5 0.4 0.2 1.5 0.9c4.3 1.2 7 1 10-2.3 l-0.2 1.7c6.6-0.3 12.6-2.8 14.1-12.3C151.3 303 151.3 302.6 151.3 302.3L151.3 302.3z M113 302.2c0.5 1.9 3.6 5.6 2.7 5.9h-0.2 C114.9 307.8 111.7 304.2 113 302.2L113 302.2z M114.3 300.4c0-0.2 0-0.4 0.1-0.6c0 0.3 0.1 0.7 0.1 1 C114.4 300.6 114.4 300.5 114.3 300.4L114.3 300.4z M119.6 298.4c0.2 0 0.5 0 0.9 0l-0.3 0.5l0 0c-0.2 0-0.3 0-0.5 0 C119.6 298.6 119.6 298.5 119.6 298.4L119.6 298.4z M125 269.5c-0.2-1.3-0.8-1.6-0.7-3.9l0.2 0.1c0.2 0.9 0.5 1.3 0.6 2.4 C125.1 268.5 125.1 268.9 125 269.5L125 269.5z"/>
		<path class="st45" d="M134.6 297.2c-4.5 0.3-10.3 2.2-6.6 3.2c0.2 0.1 0.4 0.1 0.6 0.1c1.4-0.1 0.9-0.1 0-0.3 c-3.2-0.9 1.8-2.6 5.8-2.8c2.4-0.1 6.5-0.5 6.9 3c0.5 4.4-7.4 11.5-16.2 8.5c-1.6-0.5-2.9-1.5-3.3-2.2c-3.3-0.2-1.1 2.5 2.2 3.6 c10 3.4 19-4.7 18.4-9.7C142 296.6 137.3 297 134.6 297.2L134.6 297.2z M126 301c-1.7 0.4-2.9 1.5 0 1.9c0.3 0 0.6-0.1 0.9-0.1 c1.6-0.1 2.5-0.2 0.9-0.3C124.7 302.2 124.9 301.4 126 301L126 301z M123.1 303.8c-1.5 0.5-2.1 1.3-0.8 2c0.4-0.1 1.1-0.1 2 0.1 c3 0.5 2.6 0 1.4-0.3C123.2 305 122.6 304.4 123.1 303.8L123.1 303.8z"/>
	</g>
	<path class="st25" d="M158.1 300c1.7-0.7 2.3-3.1 1.3-5.5c-0.9-2.4-3.1-3.7-4.7-3.1c-1.7 0.7-2.2 3.1-1.3 5.5 C154.4 299.3 156.5 300.7 158.1 300L158.1 300z"/>
	<path class="st26" d="M157.6 298.3c1.3-0.5 1.8-2.5 1-4.4s-2.5-3-3.8-2.5c-1.3 0.5-1.8 2.5-1 4.4S156.3 298.8 157.6 298.3 L157.6 298.3z"/>
	<path class="st27" d="M156.5 293.2c1.1-0.4 2.2 0.1 2.6 1.2c0.1 0.2 0.1 0.3 0.1 0.4l-1.5 0.4l1.3 1c-0.2 0.4-0.6 0.8-1.1 1 c-1 0.4-2.2-0.2-2.6-1.2C155 294.8 155.5 293.6 156.5 293.2L156.5 293.2z"/>
	
		<rect x="156.5" y="294.9" transform="matrix(-0.9286 0.3711 -0.3711 -0.9286 412.0111 511.2274)" class="st28" width="0.6" height="0.7"/>
	<path class="st29" d="M158.9 296L158.9 296c-0.1 0.5-0.4 0.8-0.9 1c-1 0.4-2.1-0.1-2.5-1.1c-0.3-0.9 0-1.8 0.7-2.3 c-0.2 0.4-0.2 0.9 0 1.4c0.4 1 1.5 1.5 2.5 1.1C158.8 296 158.8 296 158.9 296L158.9 296z"/>
	<path class="st14" d="M145.8 349c14.1 0 25.6-4.3 25.6-9.5c0-5.2-11.5-9.5-25.6-9.5c-14.1 0-25.5 4.3-25.5 9.5 C120.3 344.8 131.7 349 145.8 349L145.8 349z"/>
	<path class="st15" d="M145.8 346.8c12.1 0 22-3.5 22-7.7s-9.9-7.7-22-7.7c-12.1 0-22 3.5-22 7.7S133.7 346.8 145.8 346.8 L145.8 346.8z"/>
	<path class="st39" d="M161.1 291.6c1 1.8 1.7 3.9 1.6 4.6c0 0.2-0.5 0-0.7 0c-0.2 0-0.5 0.1-0.7 0.2c-0.7 0.2-1.7 1.5-1.7 1.6 c-0.5-1.2-0.1-2.9-0.9-4.4c-0.5-1-2-2.4-4.5-1.8c-1.7 0.6-0.5 3.2-0.3 4.7c-1.4-0.3-1.2-0.7-2.7-0.5c-6.8-0.7-4.4 0.9-5.2 1.1 l-3.1 0.7l1.3 0.7c-0.5 0.7-0.1 0.6-0.9 1c-5.6 1.7 0.5 7 2.9 9.2c0.1 0 0.1 0.1 0.1 0.1c0.1 0 0.1 0.1 0.2 0.1l1 0.4 c1.6 0.3 4.2 0.4 5.6-0.1c2.1-0.7 2.8-3 4-3.5c0.9 0 2.1 0.1 2.4 0.1c0.7 0-0.5-0.1-1.4 1.3c-0.6 1.7-1.1 2-0.2 4.5 c1.9 4.8 5.3 7.6 7.1 11.7c1.1 2.6 1.5 3.5 1.2 6.9c-1.5 9.5-7.5 11.9-14.1 12.3l0.2-1.7c-3.1 3.3-5.7 3.5-10 2.3 c-1.1-0.7 0.4-0.4-1.5-0.9c-5.2-1.5-8.5-3.6-11.7-8.9c0.1-0.1 0.2-0.1 0.2-0.1l1.2-0.2c-1.6-1-3.5-3.9-2.5-5.9 c1.2-0.3 1.4 0.1 1.5 0.6c-0.2-3.1-0.4-4.2 2.3-5.3l0.4 2.1c1.5-0.7 1.2-1.2 3.4-1.3l-0.3 0.5c-0.8 1.2-0.7 0.8-0.5 1.9 c2.3 0.4 4.5-3.1 9-4.1c7.1-1.6 8.2-0.5 7.8-5.3c-1-1.4-0.7-2.2-2.2-3.2c-0.3-0.8 0-0.5-0.9-0.9c0.8-0.6-1.4-2.1-2.2-2.5 c-1.5-0.9-1.9-1.5-3.1-2.4c-1.6-1.8-2.9-4-3.2-7.3c-0.2-1.9 0.3-3.6 0.2-5c-0.1-1.6-0.8-1.8-0.8-4.3l1.8 0.9 c-0.4-1.4 0.1-2.3 0.5-3.4c0.7 0.3 1 1.3 2.5 0.8c1.4-0.5 0.3 0 0.8-0.6c1.1 0 3.6-1.6 6.2-1.7 C156.3 286.4 158.9 287.6 161.1 291.6L161.1 291.6z"/>
	<path class="st40" d="M172.6 302.4c1.3 3.4-2.7 3.7-4.1 4.4c-2 0.4-3.7 0.5-6 0c-0.6-0.1-1.7-0.7-2.7-0.9c-1.6-0.2-3 0-3.2-0.1 c-1.9-0.6-1.9-0.3-2.5-2.1c-0.5-2.3 1-3.2 2.1-3.8c-0.3-0.1-1-1.9-1.8-2.4c-0.8-0.5-2.3-1.1-3.1-1.5c1.5-0.1 1.3 0.2 2.7 0.5 c-5.6-0.3-3.4 5.7 3.5 2.9c0.7-0.3 1.2-0.2 2-0.4c0.1 0.3-0.3-0.9 0.3-1.3c-0.3-0.2 1.5-1.7 2.3-1.6c0.9 0 1.8 1.2 2.2 2.6 C166.8 305.4 169.8 301.3 172.6 302.4L172.6 302.4z"/>
	<path class="st41" d="M154.8 304.8c0.6 0.5 1.7 0.9 2.5 1c-1.2 0.5-2.1 2.7-4.2 3.5c-1.4 0.5-4 0.4-5.6 0.1l-1-0.4 c-0.1 0-0.1-0.1-0.2-0.1c0 0-0.1-0.1-0.1-0.1c-2.4-2.2-8.5-7.5-2.9-9.2c1.5-0.3 4.9 0.9 8.1 1.3l1.5 0.3c0.5 0.2-0.1 0.3 1.3 0.2 c0 1-0.3 1.1-0.2 1.7c0 0.1 0 0.2 0 0.3c0 0.1 0 0.2 0.1 0.3C154.2 304 153.9 304.1 154.8 304.8L154.8 304.8z"/>
	<path class="st42" d="M161.8 298.8c0.7-0.5 2.1 1.1 0.6 1.6C161.7 300.6 161.3 299.2 161.8 298.8L161.8 298.8z"/>
	<path class="st43" d="M160.1 301.3c-0.9 0.4-2 0.9-2 2"/>
	<path class="st17" d="M155.6 289.7c-0.2-0.5-3.4-0.3-3.5 1.4c0 0 0.1 0.7 0.1 0.5C152.4 290 155.7 290 155.6 289.7L155.6 289.7z"/>
	<path class="st44" d="M156.3 299.7c-0.6 0.7-1.9 0.6-2.2 2.7c-0.1-0.7 0.2 0.1 0.2-1.1c-2.6 0.5-8.7-1.9-10.9-1.8 c0.8-0.4 0.4-0.3 0.9-1l-1.3-0.7l3.1-0.7c0.6-0.2-0.8-1.3 2.3-1.3c0.9 0 2.6-0.3 4.3 0.3C154.9 296.8 157.1 298.5 156.3 299.7 L156.3 299.7z"/>
	<path class="st43" d="M159 301.8c0.1 0.1 2.1 2.3 2.4 2.7c1.2 1.3 3.2 1.7 5 1.7c1.4 0.1 6.4-1 6.4-2.7c0-1.3-1.2-1.6-1.9-1.3 c-6.9 2.9-6.1-6.1-9-6c-1.1 0-2.6 1.3-2.5 2.9c-2.1 0.1-5.5 1.2-5.5 3.5c0 2.3 0.7 2.1 2.3 3.1c0.5 0.3 3.2-0.1 4.2 0.4 c1.4 0.8 5.4 1 7.1 0.9c1.1-0.1 4.6-1.1 4.6-2.5"/>
	<path class="st44" d="M149.6 322.3c-4.5 0.3-10.3 2.2-6.6 3.2c1.1 0.3 1.7 0.3-0.9 0.4c-2.3 0-5.2 1.8-0.1 2.1 c1.9 0.2 0.8 0.3-1 0.4c-4.1 0.2-6.9 2-1.4 3.2c1.4 0.3 1.8 0.9-1.6 0.3c-5-0.9-2.7 2.3 1 3.5c10 3.4 19-4.7 18.4-9.7 C157 321.7 152.3 322.1 149.6 322.3L149.6 322.3z"/>
	<path class="st45" d="M141.2 302.8c0.7 2.1 3.6 4.6 5.1 6c0 0 0.1 0.1 0.1 0.1c0 0.1 0.1 0.1 0.1 0.1l1 0.4 c0.2 0.1 0.5 0.1 0.7 0.1c0.3 0.4 0.4 0.7 0.1 0.9c0.9 0.3 0.6 0 0.9 0.8c1.4 1 1.2 1.8 2.1 3.2c0.1 0.9 0.1 1.6 0 2.2 c0-0.1 0-0.2 0-0.3c-0.9-1.4-0.7-2.2-2.1-3.2c-0.3-0.8 0-0.5-0.9-0.8c0.8-0.6-1.4-2.1-2.2-2.6c-1.5-0.9-1.9-1.5-3.1-2.4 c-1.6-1.8-2.9-4-3.2-7.3c-0.1-0.7 0-1.3 0-1.8C140 300 140.5 301.5 141.2 302.8L141.2 302.8z M166.3 327.4c0.1 0.7 0 1.6-0.1 2.8 c-1.5 9.5-7.5 11.9-14.1 12.3l0.2-1.7c-3 3.3-5.7 3.5-10 2.3c-1.1-0.7 0.3-0.4-1.5-0.9c-5.2-1.5-8.6-3.6-11.7-8.9 c0.1-0.1 0.2-0.1 0.2-0.1l0.9-0.1c2.9 4.1 6 5.9 10.7 7.2c1.9 0.5 0.4 0.2 1.5 0.9c4.3 1.2 7 1 10-2.3l-0.2 1.7 c6.6-0.3 12.6-2.8 14.1-12.3C166.3 328.1 166.3 327.7 166.3 327.4L166.3 327.4z M128 327.3c0.5 1.9 3.6 5.6 2.7 5.9h-0.2 C129.9 332.9 126.7 329.4 128 327.3L128 327.3z M129.3 325.5c0-0.2 0-0.4 0.1-0.6c0 0.3 0.1 0.7 0.1 1 C129.4 325.7 129.4 325.6 129.3 325.5L129.3 325.5z M134.6 323.5c0.2 0 0.5 0 0.9 0l-0.3 0.5l0 0c-0.2 0-0.3 0-0.5 0 C134.6 323.7 134.6 323.6 134.6 323.5L134.6 323.5z M140 294.6c-0.2-1.3-0.8-1.6-0.7-3.9l0.2 0.1c0.2 0.9 0.5 1.3 0.6 2.4 C140.1 293.6 140.1 294.1 140 294.6L140 294.6z"/>
	<path class="st45" d="M149.6 322.3c-4.5 0.3-10.3 2.2-6.6 3.2c0.2 0.1 0.4 0.1 0.6 0.1c1.4-0.1 0.9-0.1 0-0.3 c-3.2-0.9 1.8-2.6 5.8-2.8c2.4-0.1 6.5-0.5 6.9 3c0.5 4.4-7.4 11.5-16.2 8.5c-1.6-0.5-2.9-1.5-3.3-2.2c-3.3-0.2-1.1 2.5 2.2 3.6 c10 3.4 19-4.7 18.4-9.7C157 321.7 152.3 322.1 149.6 322.3L149.6 322.3z M141 326.1c-1.7 0.4-2.9 1.5 0 1.9c0.3 0 0.6-0.1 0.9-0.1 c1.6-0.1 2.5-0.2 0.9-0.3C139.7 327.3 139.9 326.5 141 326.1L141 326.1z M138.1 328.9c-1.5 0.5-2.1 1.3-0.8 2 c0.4-0.1 1.1-0.1 2 0.1c3 0.5 2.6 0 1.4-0.3C138.2 330.2 137.6 329.5 138.1 328.9L138.1 328.9z"/>
</g>
<g class="st46">
	<path class="st47" d="M208.8 280.4c5.1-5 29.8-8.3 29.8-20.6c0-10.9-23.2-12.5-28.6-18.3c9.3 0 42.9 9.2 42.9 20.1v1.8 C252.9 281.1 215.5 280.4 208.8 280.4L208.8 280.4z"/>
</g>
</svg>
