<svg xmlns="http://www.w3.org/2000/svg" xmlns:xlink="http://www.w3.org/1999/xlink" viewBox="0 0 168.9 174" preserveAspectRatio="xMinYMin meet">
<style type="text/css">
	.st0{fill-rule:evenodd;clip-rule:evenodd;fill:#764C29;}
	.st1{fill-rule:evenodd;clip-rule:evenodd;fill:#513119;}
	.st2{fill-rule:evenodd;clip-rule:evenodd;fill:#AD835D;}
	.st3{fill-rule:evenodd;clip-rule:evenodd;fill:#24211D;stroke:#24211D;stroke-width:0;stroke-linecap:square;stroke-miterlimit:10;}
	.st7{fill-rule:evenodd;clip-rule:evenodd;fill:#F98200;}
	.st8{fill-rule:evenodd;clip-rule:evenodd;fill:#FCC900;}
	.st9{fill-rule:evenodd;clip-rule:evenodd;fill:#F57E56;}
	.st10{fill-rule:evenodd;clip-rule:evenodd;fill:#4D4A42;}
	.st11{fill-rule:evenodd;clip-rule:evenodd;fill:#24211D;}
	.st12{fill:none;stroke:#75887E;stroke-width:0;stroke-linecap:square;stroke-miterlimit:10;}
</style>
	<g>
		<rect x="135" y="36.8" class="st0" width="12" height="136.7"/>
		<rect x="140.8" y="36.8" class="st1" width="6.1" height="136.7"/>
		<path class="st2" d="M140.8,33.2c3.3,0,6.1,1.7,6.1,3.6c0,1.9-2.8,3.3-6.1,3.3c-3.1,0-5.9-1.4-5.9-3.3
			C135,34.9,137.8,33.2,140.8,33.2L140.8,33.2z"/>
		<rect x="22.8" y="43.8" class="st0" width="11.8" height="130.2"/>
		<rect x="28.6" y="43.8" class="st1" width="5.9" height="130.2"/>
		<path class="st2" d="M28.6,40.2c3.3,0,5.9,1.7,5.9,3.6c0,1.9-2.6,3.6-5.9,3.6s-5.9-1.7-5.9-3.6C22.8,41.9,25.3,40.2,28.6,40.2
			L28.6,40.2z"/>
		<path class="st2" d="M167.4,58.6c-4.3-3.6-43.2-2.5-50.1-3.1c-21.2-1.7-40.1,1.9-60.8,1.9c-17.4,0-33.7,5.3-50.9,5.3
			c-7.9,0-5.9,18.7-3.6,24.2c1.8,4.2,9.7,2.2,3.8,5.3c-10.5,5.8,5.4,12.8,2.8,14.5c-9.5,6.4,1,9.2,8.2,8.6l146.2-6.7
			c1.8,0,1.3-7.2,1.8-8.6c2.3-7-18.4-1.1-11.2-4.5c9.7-4.5,13.8,1.7,13.8-12.8c0-19.2,3.8-15-16.6-15c2.6-1.1,5.9-2.5,11.5-2.5
			c2.6,0,4.1-1.1,6.6-1.9C168.9,63.3,168.7,58.6,167.4,58.6L167.4,58.6z"/>
		<path class="st0" d="M167.4,62.5c-4.3-3.9-43.2-2.5-50.1-3.1c-21.2-1.7-40.1,1.7-60.8,1.7c-17.4,0-33.7,5.6-50.9,5.6
			c-7.9,0-5.9,18.4-3.6,24.2c1.8,4.2,9.7,1.9,3.8,5c-10.5,5.8,5.4,12.8,2.8,14.8c-9.5,6.1,1,8.9,8.2,8.6l146.2-7
			c1.8,0,1.3-7.2,1.8-8.6c2.3-6.7-18.4-0.8-11.2-4.5c9.7-4.5,13.8,1.7,13.8-12.8c0-18.9,3.8-15-16.6-15c2.6-0.8,5.9-2.5,11.5-2.5
			c2.6,0,4.1-1.1,6.6-1.9C168.9,66.9,168.7,62.2,167.4,62.5L167.4,62.5z"/>
		<path class="st3" d="M29.1,67.5c1.3,0,2.3,1.1,2.3,2.5s-1,2.5-2.3,2.5c-1,0-2-1.1-2-2.5S28.1,67.5,29.1,67.5L29.1,67.5z"/>
		<path class="st3" d="M27.1,108.3c1.3,0,2.3,1.1,2.3,2.5s-1,2.5-2.3,2.5c-1.3,0-2.3-1.1-2.3-2.5S25.8,108.3,27.1,108.3L27.1,108.3z
			"/>
		<path class="st3" d="M141.9,104.2c1.3,0,2.3,1.1,2.3,2.5s-1,2.5-2.3,2.5c-1.3,0-2.3-1.1-2.3-2.5S140.6,104.2,141.9,104.2
			L141.9,104.2z"/>
		<path class="st3" d="M141.6,61.1c1,0,2,1.1,2,2.5c0,1.4-1,2.5-2,2.5c-1.3,0-2.3-1.1-2.3-2.5C139.3,62.2,140.3,61.1,141.6,61.1
			L141.6,61.1z"/>
	</g>
	<g>
		<path class="st7" d="M131.9,16.7c-0.3-3.5-0.9-12.5,2-16.2c1.2-1.5,8.5,3.4,10,4.6c7.3,5.4,12,10.9,6.5,20
			c-0.9,1.6-2.2,3.2-3.1,4.9c-0.7,1.3-3,2.4-3.4,4c5.4-1.3,3.9-6.1,10.9-6.1c3.1,0,3,5,3,7.7c0,5.9-3.9,7.3-9.3,6.3
			C132.5,39.4,133.1,29.8,131.9,16.7L131.9,16.7z"/>
		<path class="st8" d="M132.3,16.6c-0.3-3.6-0.9-12.7,2-16.3c1.1-1.5,8.5,3.5,10,4.6c7.3,5.4,12,11.1,6.5,20.1
			c-0.9,1.5-2.2,3.2-3.1,4.9c-0.4,0.8-1.5,1.5-2.3,2.3c-3.1-0.4-5-2.2-6.2-4.4c-2.6-5.9-4.6-7.7-6.5-7.4l0,0
			C132.5,19,132.4,17.8,132.3,16.6L132.3,16.6z M146.5,32.8c2.8-1.9,2.8-5,8.5-5c3.2,0,3.1,4.9,3.1,7.6c0,5.9-3.9,7.3-9.3,6.5
			C149.9,39.4,149.9,36.7,146.5,32.8L146.5,32.8z"/>
		<path class="st9" d="M132.4,14.7c2.3,0.9,4.8,2,5.9,4.3c1.3,3,4,4.6,5.5,6.3c0.5,0.5,1.6,2.6-0.1,1.9c-1.5-0.5-4.3-3.4-5.1-4.4
			c-1.1-1.3-1.9-2.8-2-3.2c-0.8-1.3-1.7-3.2-4-3.2l-0.1-0.1C132.4,15.6,132.4,15.2,132.4,14.7L132.4,14.7z"/>
		<path class="st10" d="M137.5,16.2c0.4-3.6,1.5-12.7,5.1-15.6c1.3-1.2,7.5,5,8.9,6.5c6.1,6.7,9.7,13.1,2.4,20.9
			c-1.2,1.3-2.7,2.8-3.9,4.2c-0.9,1.1-3.5,1.8-4.2,3.2c5.5-0.3,5.1-5.1,11.8-3.8c3.1,0.7,1.9,5.4,1.5,8.1c-1.2,5.8-5.2,6.3-10.4,4.4
			C133.7,38.4,136.2,29.1,137.5,16.2L137.5,16.2z"/>
		<path class="st7" d="M138.2,17c0.3-3.5,1.3-12.5,5-15.5c1.5-1.2,7.7,5,8.9,6.5c6.1,6.6,9.7,13.1,2.4,20.9
			c-1.2,1.3-2.7,2.7-3.9,4.2c-0.9,1.1-3.4,1.8-4,3.2c5.5-0.3,5-5.1,11.7-3.8c3.1,0.5,2,5.4,1.5,8c-1.2,5.8-5.2,6.5-10.2,4.6
			C134.3,39.4,136.7,30.1,138.2,17L138.2,17z"/>
		<path class="st8" d="M138.6,16.9c0.4-3.5,1.3-12.5,5-15.5c1.5-1.2,7.7,5,9,6.5c5.9,6.7,9.6,13.1,2.3,20.9
			c-1.2,1.3-2.7,2.7-3.9,4.2c-0.5,0.7-1.7,1.2-2.7,1.9c-3-1.1-4.4-3.1-5.2-5.7c-1.2-6.3-3-8.4-4.8-8.5l0,0
			C138.3,19.4,138.4,18.2,138.6,16.9L138.6,16.9z M149.3,35.6c3.1-1.2,3.8-4.3,9.3-3.2c3.1,0.5,2,5.4,1.5,8.1
			c-1.1,5.7-5.2,6.3-10.2,4.4C151.4,42.7,151.9,40.1,149.3,35.6L149.3,35.6z"/>
		<path class="st7" d="M139,15.1c2,1.3,4.3,3,5,5.4c0.7,3.2,3.1,5.3,4.2,7.3c0.4,0.7,1.1,2.8-0.5,1.9c-1.3-0.8-3.5-4.2-4.2-5.4
			c-0.8-1.6-1.2-3.2-1.3-3.6c-0.4-1.5-1.1-3.5-3.2-3.9l-0.1-0.1C138.9,16,138.9,15.6,139,15.1L139,15.1z"/>
		<path class="st11" d="M139.4,37.8c-2.6-2-4.6-3.5-4.8-3.4c-0.1,0.1,1.7,2,4.2,4c2.6,2.2,4.6,3.6,4.8,3.4
			C143.7,41.7,141.8,39.8,139.4,37.8L139.4,37.8z"/>
		<path class="st11" d="M134.3,33.3c-0.4-0.3-0.9-0.4-1.1-0.1c-0.3,0.3,0,0.7,0.4,0.9c0.4,0.4,0.8,0.5,0.9,0.3
			C134.8,34.1,134.7,33.7,134.3,33.3L134.3,33.3z"/>
		<path class="st12" d="M134.3,33.3c-0.4-0.3-0.9-0.4-1.1-0.1c-0.3,0.3,0,0.7,0.4,0.9c0.4,0.4,0.8,0.5,0.9,0.3
			C134.8,34.1,134.7,33.7,134.3,33.3L134.3,33.3z"/>
	</g>
</svg>
